[2024-01-14 14:14:53] [INFO] Parsing file graph3.txt
[2024-01-14 14:14:53] [INFO] Function parse_graph() was entered. Stream is being parsed into a graph.
[2024-01-14 14:14:53] [INFO] Parsing number of vertices. Number: 100.
[2024-01-14 14:14:53] [INFO] Parsing number of edges. Number: 377.
[2024-01-14 14:14:53] [INFO] Count of edges for Vertex 1 is 5.
[2024-01-14 14:14:53] [INFO] Vertex 1 was successfully parsed and saved to graph.
[2024-01-14 14:14:53] [INFO] Count of edges for Vertex 2 is 11.
[2024-01-14 14:14:53] [INFO] Vertex 2 was successfully parsed and saved to graph.
[2024-01-14 14:14:53] [INFO] Count of edges for Vertex 3 is 8.
[2024-01-14 14:14:53] [INFO] Vertex 3 was successfully parsed and saved to graph.
[2024-01-14 14:14:53] [INFO] Count of edges for Vertex 4 is 8.
[2024-01-14 14:14:53] [INFO] Vertex 4 was successfully parsed and saved to graph.
[2024-01-14 14:14:53] [INFO] Count of edges for Vertex 5 is 7.
[2024-01-14 14:14:53] [INFO] Vertex 5 was successfully parsed and saved to graph.
[2024-01-14 14:14:53] [INFO] Count of edges for Vertex 6 is 6.
[2024-01-14 14:14:53] [INFO] Vertex 6 was successfully parsed and saved to graph.
[2024-01-14 14:14:53] [INFO] Count of edges for Vertex 7 is 7.
[2024-01-14 14:14:53] [INFO] Vertex 7 was successfully parsed and saved to graph.
[2024-01-14 14:14:53] [INFO] Count of edges for Vertex 8 is 8.
[2024-01-14 14:14:53] [INFO] Vertex 8 was successfully parsed and saved to graph.
[2024-01-14 14:14:53] [INFO] Count of edges for Vertex 9 is 8.
[2024-01-14 14:14:53] [INFO] Vertex 9 was successfully parsed and saved to graph.
[2024-01-14 14:14:53] [INFO] Count of edges for Vertex 10 is 9.
[2024-01-14 14:14:53] [INFO] Vertex 10 was successfully parsed and saved to graph.
[2024-01-14 14:14:53] [INFO] Count of edges for Vertex 11 is 5.
[2024-01-14 14:14:53] [INFO] Vertex 11 was successfully parsed and saved to graph.
[2024-01-14 14:14:53] [INFO] Count of edges for Vertex 12 is 6.
[2024-01-14 14:14:53] [INFO] Vertex 12 was successfully parsed and saved to graph.
[2024-01-14 14:14:53] [INFO] Count of edges for Vertex 13 is 9.
[2024-01-14 14:14:53] [INFO] Vertex 13 was successfully parsed and saved to graph.
[2024-01-14 14:14:53] [INFO] Count of edges for Vertex 14 is 13.
[2024-01-14 14:14:53] [INFO] Vertex 14 was successfully parsed and saved to graph.
[2024-01-14 14:14:53] [INFO] Count of edges for Vertex 15 is 8.
[2024-01-14 14:14:53] [INFO] Vertex 15 was successfully parsed and saved to graph.
[2024-01-14 14:14:53] [INFO] Count of edges for Vertex 16 is 6.
[2024-01-14 14:14:53] [INFO] Vertex 16 was successfully parsed and saved to graph.
[2024-01-14 14:14:53] [INFO] Count of edges for Vertex 17 is 10.
[2024-01-14 14:14:53] [INFO] Vertex 17 was successfully parsed and saved to graph.
[2024-01-14 14:14:53] [INFO] Count of edges for Vertex 18 is 3.
[2024-01-14 14:14:53] [INFO] Vertex 18 was successfully parsed and saved to graph.
[2024-01-14 14:14:53] [INFO] Count of edges for Vertex 19 is 8.
[2024-01-14 14:14:53] [INFO] Vertex 19 was successfully parsed and saved to graph.
[2024-01-14 14:14:53] [INFO] Count of edges for Vertex 20 is 8.
[2024-01-14 14:14:53] [INFO] Vertex 20 was successfully parsed and saved to graph.
[2024-01-14 14:14:53] [INFO] Count of edges for Vertex 21 is 6.
[2024-01-14 14:14:53] [INFO] Vertex 21 was successfully parsed and saved to graph.
[2024-01-14 14:14:53] [INFO] Count of edges for Vertex 22 is 7.
[2024-01-14 14:14:53] [INFO] Vertex 22 was successfully parsed and saved to graph.
[2024-01-14 14:14:53] [INFO] Count of edges for Vertex 23 is 10.
[2024-01-14 14:14:53] [INFO] Vertex 23 was successfully parsed and saved to graph.
[2024-01-14 14:14:53] [INFO] Count of edges for Vertex 24 is 8.
[2024-01-14 14:14:53] [INFO] Vertex 24 was successfully parsed and saved to graph.
[2024-01-14 14:14:53] [INFO] Count of edges for Vertex 25 is 8.
[2024-01-14 14:14:53] [INFO] Vertex 25 was successfully parsed and saved to graph.
[2024-01-14 14:14:53] [INFO] Count of edges for Vertex 26 is 7.
[2024-01-14 14:14:53] [INFO] Vertex 26 was successfully parsed and saved to graph.
[2024-01-14 14:14:53] [INFO] Count of edges for Vertex 27 is 5.
[2024-01-14 14:14:53] [INFO] Vertex 27 was successfully parsed and saved to graph.
[2024-01-14 14:14:53] [INFO] Count of edges for Vertex 28 is 10.
[2024-01-14 14:14:53] [INFO] Vertex 28 was successfully parsed and saved to graph.
[2024-01-14 14:14:53] [INFO] Count of edges for Vertex 29 is 5.
[2024-01-14 14:14:53] [INFO] Vertex 29 was successfully parsed and saved to graph.
[2024-01-14 14:14:53] [INFO] Count of edges for Vertex 30 is 7.
[2024-01-14 14:14:53] [INFO] Vertex 30 was successfully parsed and saved to graph.
[2024-01-14 14:14:53] [INFO] Count of edges for Vertex 31 is 5.
[2024-01-14 14:14:53] [INFO] Vertex 31 was successfully parsed and saved to graph.
[2024-01-14 14:14:53] [INFO] Count of edges for Vertex 32 is 8.
[2024-01-14 14:14:53] [INFO] Vertex 32 was successfully parsed and saved to graph.
[2024-01-14 14:14:53] [INFO] Count of edges for Vertex 33 is 6.
[2024-01-14 14:14:53] [INFO] Vertex 33 was successfully parsed and saved to graph.
[2024-01-14 14:14:53] [INFO] Count of edges for Vertex 34 is 9.
[2024-01-14 14:14:53] [INFO] Vertex 34 was successfully parsed and saved to graph.
[2024-01-14 14:14:53] [INFO] Count of edges for Vertex 35 is 4.
[2024-01-14 14:14:53] [INFO] Vertex 35 was successfully parsed and saved to graph.
[2024-01-14 14:14:53] [INFO] Count of edges for Vertex 36 is 4.
[2024-01-14 14:14:53] [INFO] Vertex 36 was successfully parsed and saved to graph.
[2024-01-14 14:14:53] [INFO] Count of edges for Vertex 37 is 9.
[2024-01-14 14:14:53] [INFO] Vertex 37 was successfully parsed and saved to graph.
[2024-01-14 14:14:53] [INFO] Count of edges for Vertex 38 is 8.
[2024-01-14 14:14:53] [INFO] Vertex 38 was successfully parsed and saved to graph.
[2024-01-14 14:14:53] [INFO] Count of edges for Vertex 39 is 7.
[2024-01-14 14:14:53] [INFO] Vertex 39 was successfully parsed and saved to graph.
[2024-01-14 14:14:53] [INFO] Count of edges for Vertex 40 is 4.
[2024-01-14 14:14:53] [INFO] Vertex 40 was successfully parsed and saved to graph.
[2024-01-14 14:14:53] [INFO] Count of edges for Vertex 41 is 9.
[2024-01-14 14:14:53] [INFO] Vertex 41 was successfully parsed and saved to graph.
[2024-01-14 14:14:53] [INFO] Count of edges for Vertex 42 is 6.
[2024-01-14 14:14:53] [INFO] Vertex 42 was successfully parsed and saved to graph.
[2024-01-14 14:14:53] [INFO] Count of edges for Vertex 43 is 4.
[2024-01-14 14:14:53] [INFO] Vertex 43 was successfully parsed and saved to graph.
[2024-01-14 14:14:53] [INFO] Count of edges for Vertex 44 is 8.
[2024-01-14 14:14:53] [INFO] Vertex 44 was successfully parsed and saved to graph.
[2024-01-14 14:14:53] [INFO] Count of edges for Vertex 45 is 8.
[2024-01-14 14:14:53] [INFO] Vertex 45 was successfully parsed and saved to graph.
[2024-01-14 14:14:53] [INFO] Count of edges for Vertex 46 is 8.
[2024-01-14 14:14:53] [INFO] Vertex 46 was successfully parsed and saved to graph.
[2024-01-14 14:14:53] [INFO] Count of edges for Vertex 47 is 14.
[2024-01-14 14:14:53] [INFO] Vertex 47 was successfully parsed and saved to graph.
[2024-01-14 14:14:53] [INFO] Count of edges for Vertex 48 is 5.
[2024-01-14 14:14:53] [INFO] Vertex 48 was successfully parsed and saved to graph.
[2024-01-14 14:14:53] [INFO] Count of edges for Vertex 49 is 8.
[2024-01-14 14:14:53] [INFO] Vertex 49 was successfully parsed and saved to graph.
[2024-01-14 14:14:53] [INFO] Count of edges for Vertex 50 is 10.
[2024-01-14 14:14:53] [INFO] Vertex 50 was successfully parsed and saved to graph.
[2024-01-14 14:14:53] [INFO] Count of edges for Vertex 51 is 6.
[2024-01-14 14:14:53] [INFO] Vertex 51 was successfully parsed and saved to graph.
[2024-01-14 14:14:53] [INFO] Count of edges for Vertex 52 is 9.
[2024-01-14 14:14:53] [INFO] Vertex 52 was successfully parsed and saved to graph.
[2024-01-14 14:14:53] [INFO] Count of edges for Vertex 53 is 6.
[2024-01-14 14:14:53] [INFO] Vertex 53 was successfully parsed and saved to graph.
[2024-01-14 14:14:53] [INFO] Count of edges for Vertex 54 is 11.
[2024-01-14 14:14:53] [INFO] Vertex 54 was successfully parsed and saved to graph.
[2024-01-14 14:14:53] [INFO] Count of edges for Vertex 55 is 8.
[2024-01-14 14:14:53] [INFO] Vertex 55 was successfully parsed and saved to graph.
[2024-01-14 14:14:53] [INFO] Count of edges for Vertex 56 is 11.
[2024-01-14 14:14:53] [INFO] Vertex 56 was successfully parsed and saved to graph.
[2024-01-14 14:14:53] [INFO] Count of edges for Vertex 57 is 7.
[2024-01-14 14:14:53] [INFO] Vertex 57 was successfully parsed and saved to graph.
[2024-01-14 14:14:53] [INFO] Count of edges for Vertex 58 is 11.
[2024-01-14 14:14:53] [INFO] Vertex 58 was successfully parsed and saved to graph.
[2024-01-14 14:14:53] [INFO] Count of edges for Vertex 59 is 7.
[2024-01-14 14:14:53] [INFO] Vertex 59 was successfully parsed and saved to graph.
[2024-01-14 14:14:53] [INFO] Count of edges for Vertex 60 is 2.
[2024-01-14 14:14:53] [INFO] Vertex 60 was successfully parsed and saved to graph.
[2024-01-14 14:14:53] [INFO] Count of edges for Vertex 61 is 10.
[2024-01-14 14:14:53] [INFO] Vertex 61 was successfully parsed and saved to graph.
[2024-01-14 14:14:53] [INFO] Count of edges for Vertex 62 is 8.
[2024-01-14 14:14:53] [INFO] Vertex 62 was successfully parsed and saved to graph.
[2024-01-14 14:14:53] [INFO] Count of edges for Vertex 63 is 7.
[2024-01-14 14:14:53] [INFO] Vertex 63 was successfully parsed and saved to graph.
[2024-01-14 14:14:53] [INFO] Count of edges for Vertex 64 is 10.
[2024-01-14 14:14:53] [INFO] Vertex 64 was successfully parsed and saved to graph.
[2024-01-14 14:14:53] [INFO] Count of edges for Vertex 65 is 10.
[2024-01-14 14:14:53] [INFO] Vertex 65 was successfully parsed and saved to graph.
[2024-01-14 14:14:53] [INFO] Count of edges for Vertex 66 is 8.
[2024-01-14 14:14:53] [INFO] Vertex 66 was successfully parsed and saved to graph.
[2024-01-14 14:14:53] [INFO] Count of edges for Vertex 67 is 8.
[2024-01-14 14:14:53] [INFO] Vertex 67 was successfully parsed and saved to graph.
[2024-01-14 14:14:53] [INFO] Count of edges for Vertex 68 is 8.
[2024-01-14 14:14:53] [INFO] Vertex 68 was successfully parsed and saved to graph.
[2024-01-14 14:14:53] [INFO] Count of edges for Vertex 69 is 6.
[2024-01-14 14:14:53] [INFO] Vertex 69 was successfully parsed and saved to graph.
[2024-01-14 14:14:53] [INFO] Count of edges for Vertex 70 is 5.
[2024-01-14 14:14:53] [INFO] Vertex 70 was successfully parsed and saved to graph.
[2024-01-14 14:14:53] [INFO] Count of edges for Vertex 71 is 7.
[2024-01-14 14:14:53] [INFO] Vertex 71 was successfully parsed and saved to graph.
[2024-01-14 14:14:53] [INFO] Count of edges for Vertex 72 is 4.
[2024-01-14 14:14:53] [INFO] Vertex 72 was successfully parsed and saved to graph.
[2024-01-14 14:14:53] [INFO] Count of edges for Vertex 73 is 9.
[2024-01-14 14:14:53] [INFO] Vertex 73 was successfully parsed and saved to graph.
[2024-01-14 14:14:53] [INFO] Count of edges for Vertex 74 is 6.
[2024-01-14 14:14:53] [INFO] Vertex 74 was successfully parsed and saved to graph.
[2024-01-14 14:14:53] [INFO] Count of edges for Vertex 75 is 6.
[2024-01-14 14:14:53] [INFO] Vertex 75 was successfully parsed and saved to graph.
[2024-01-14 14:14:53] [INFO] Count of edges for Vertex 76 is 11.
[2024-01-14 14:14:53] [INFO] Vertex 76 was successfully parsed and saved to graph.
[2024-01-14 14:14:53] [INFO] Count of edges for Vertex 77 is 10.
[2024-01-14 14:14:53] [INFO] Vertex 77 was successfully parsed and saved to graph.
[2024-01-14 14:14:53] [INFO] Count of edges for Vertex 78 is 12.
[2024-01-14 14:14:53] [INFO] Vertex 78 was successfully parsed and saved to graph.
[2024-01-14 14:14:53] [INFO] Count of edges for Vertex 79 is 9.
[2024-01-14 14:14:53] [INFO] Vertex 79 was successfully parsed and saved to graph.
[2024-01-14 14:14:53] [INFO] Count of edges for Vertex 80 is 8.
[2024-01-14 14:14:53] [INFO] Vertex 80 was successfully parsed and saved to graph.
[2024-01-14 14:14:53] [INFO] Count of edges for Vertex 81 is 5.
[2024-01-14 14:14:53] [INFO] Vertex 81 was successfully parsed and saved to graph.
[2024-01-14 14:14:53] [INFO] Count of edges for Vertex 82 is 3.
[2024-01-14 14:14:53] [INFO] Vertex 82 was successfully parsed and saved to graph.
[2024-01-14 14:14:53] [INFO] Count of edges for Vertex 83 is 8.
[2024-01-14 14:14:53] [INFO] Vertex 83 was successfully parsed and saved to graph.
[2024-01-14 14:14:53] [INFO] Count of edges for Vertex 84 is 9.
[2024-01-14 14:14:53] [INFO] Vertex 84 was successfully parsed and saved to graph.
[2024-01-14 14:14:53] [INFO] Count of edges for Vertex 85 is 5.
[2024-01-14 14:14:53] [INFO] Vertex 85 was successfully parsed and saved to graph.
[2024-01-14 14:14:53] [INFO] Count of edges for Vertex 86 is 2.
[2024-01-14 14:14:53] [INFO] Vertex 86 was successfully parsed and saved to graph.
[2024-01-14 14:14:53] [INFO] Count of edges for Vertex 87 is 11.
[2024-01-14 14:14:53] [INFO] Vertex 87 was successfully parsed and saved to graph.
[2024-01-14 14:14:53] [INFO] Count of edges for Vertex 88 is 8.
[2024-01-14 14:14:53] [INFO] Vertex 88 was successfully parsed and saved to graph.
[2024-01-14 14:14:53] [INFO] Count of edges for Vertex 89 is 4.
[2024-01-14 14:14:53] [INFO] Vertex 89 was successfully parsed and saved to graph.
[2024-01-14 14:14:53] [INFO] Count of edges for Vertex 90 is 9.
[2024-01-14 14:14:53] [INFO] Vertex 90 was successfully parsed and saved to graph.
[2024-01-14 14:14:53] [INFO] Count of edges for Vertex 91 is 14.
[2024-01-14 14:14:53] [INFO] Vertex 91 was successfully parsed and saved to graph.
[2024-01-14 14:14:53] [INFO] Count of edges for Vertex 92 is 10.
[2024-01-14 14:14:53] [INFO] Vertex 92 was successfully parsed and saved to graph.
[2024-01-14 14:14:53] [INFO] Count of edges for Vertex 93 is 7.
[2024-01-14 14:14:53] [INFO] Vertex 93 was successfully parsed and saved to graph.
[2024-01-14 14:14:53] [INFO] Count of edges for Vertex 94 is 9.
[2024-01-14 14:14:53] [INFO] Vertex 94 was successfully parsed and saved to graph.
[2024-01-14 14:14:53] [INFO] Count of edges for Vertex 95 is 6.
[2024-01-14 14:14:53] [INFO] Vertex 95 was successfully parsed and saved to graph.
[2024-01-14 14:14:53] [INFO] Count of edges for Vertex 96 is 6.
[2024-01-14 14:14:53] [INFO] Vertex 96 was successfully parsed and saved to graph.
[2024-01-14 14:14:53] [INFO] Count of edges for Vertex 97 is 3.
[2024-01-14 14:14:53] [INFO] Vertex 97 was successfully parsed and saved to graph.
[2024-01-14 14:14:53] [INFO] Count of edges for Vertex 98 is 5.
[2024-01-14 14:14:53] [INFO] Vertex 98 was successfully parsed and saved to graph.
[2024-01-14 14:14:53] [INFO] Count of edges for Vertex 99 is 14.
[2024-01-14 14:14:53] [INFO] Vertex 99 was successfully parsed and saved to graph.
[2024-01-14 14:14:53] [INFO] Count of edges for Vertex 100 is 6.
[2024-01-14 14:14:53] [INFO] Vertex 100 was successfully parsed and saved to graph.
[2024-01-14 14:14:53] [INFO] Stream was successfully parsed to graph.
[2024-01-14 14:14:53] [INFO] Greedy coloring algorithm started.

[2024-01-14 14:14:53] [INFO] Greedy coloring needed 1 ms to finish.

[2024-01-14 14:14:53] [INFO] Vertex 1 has color 0.
[2024-01-14 14:14:53] [INFO] Vertex 2 has color 0.
[2024-01-14 14:14:53] [INFO] Vertex 3 has color 0.
[2024-01-14 14:14:53] [INFO] Vertex 4 has color 0.
[2024-01-14 14:14:53] [INFO] Vertex 5 has color 0.
[2024-01-14 14:14:53] [INFO] Vertex 6 has color 0.
[2024-01-14 14:14:53] [INFO] Vertex 7 has color 0.
[2024-01-14 14:14:53] [INFO] Vertex 8 has color 0.
[2024-01-14 14:14:53] [INFO] Vertex 9 has color 0.
[2024-01-14 14:14:53] [INFO] Vertex 10 has color 0.
[2024-01-14 14:14:53] [INFO] Vertex 11 has color 0.
[2024-01-14 14:14:53] [INFO] Vertex 12 has color 0.
[2024-01-14 14:14:53] [INFO] Vertex 13 has color 1.
[2024-01-14 14:14:53] [INFO] Vertex 14 has color 1.
[2024-01-14 14:14:53] [INFO] Vertex 15 has color 0.
[2024-01-14 14:14:53] [INFO] Vertex 16 has color 1.
[2024-01-14 14:14:53] [INFO] Vertex 17 has color 2.
[2024-01-14 14:14:53] [INFO] Vertex 18 has color 0.
[2024-01-14 14:14:53] [INFO] Vertex 19 has color 1.
[2024-01-14 14:14:53] [INFO] Vertex 20 has color 0.
[2024-01-14 14:14:53] [INFO] Vertex 21 has color 1.
[2024-01-14 14:14:53] [INFO] Vertex 22 has color 2.
[2024-01-14 14:14:53] [INFO] Vertex 23 has color 0.
[2024-01-14 14:14:53] [INFO] Vertex 24 has color 1.
[2024-01-14 14:14:53] [INFO] Vertex 25 has color 0.
[2024-01-14 14:14:53] [INFO] Vertex 26 has color 1.
[2024-01-14 14:14:53] [INFO] Vertex 27 has color 0.
[2024-01-14 14:14:53] [INFO] Vertex 28 has color 0.
[2024-01-14 14:14:53] [INFO] Vertex 29 has color 1.
[2024-01-14 14:14:53] [INFO] Vertex 30 has color 2.
[2024-01-14 14:14:53] [INFO] Vertex 31 has color 2.
[2024-01-14 14:14:53] [INFO] Vertex 32 has color 0.
[2024-01-14 14:14:53] [INFO] Vertex 33 has color 1.
[2024-01-14 14:14:53] [INFO] Vertex 34 has color 2.
[2024-01-14 14:14:53] [INFO] Vertex 35 has color 0.
[2024-01-14 14:14:53] [INFO] Vertex 36 has color 1.
[2024-01-14 14:14:53] [INFO] Vertex 37 has color 1.
[2024-01-14 14:14:53] [INFO] Vertex 38 has color 1.
[2024-01-14 14:14:53] [INFO] Vertex 39 has color 1.
[2024-01-14 14:14:53] [INFO] Vertex 40 has color 0.
[2024-01-14 14:14:53] [INFO] Vertex 41 has color 1.
[2024-01-14 14:14:53] [INFO] Vertex 42 has color 2.
[2024-01-14 14:14:53] [INFO] Vertex 43 has color 1.
[2024-01-14 14:14:53] [INFO] Vertex 44 has color 1.
[2024-01-14 14:14:53] [INFO] Vertex 45 has color 3.
[2024-01-14 14:14:53] [INFO] Vertex 46 has color 0.
[2024-01-14 14:14:53] [INFO] Vertex 47 has color 2.
[2024-01-14 14:14:53] [INFO] Vertex 48 has color 1.
[2024-01-14 14:14:53] [INFO] Vertex 49 has color 0.
[2024-01-14 14:14:53] [INFO] Vertex 50 has color 2.
[2024-01-14 14:14:53] [INFO] Vertex 51 has color 0.
[2024-01-14 14:14:53] [INFO] Vertex 52 has color 0.
[2024-01-14 14:14:53] [INFO] Vertex 53 has color 2.
[2024-01-14 14:14:53] [INFO] Vertex 54 has color 3.
[2024-01-14 14:14:53] [INFO] Vertex 55 has color 3.
[2024-01-14 14:14:53] [INFO] Vertex 56 has color 4.
[2024-01-14 14:14:53] [INFO] Vertex 57 has color 3.
[2024-01-14 14:14:53] [INFO] Vertex 58 has color 4.
[2024-01-14 14:14:53] [INFO] Vertex 59 has color 2.
[2024-01-14 14:14:53] [INFO] Vertex 60 has color 0.
[2024-01-14 14:14:53] [INFO] Vertex 61 has color 4.
[2024-01-14 14:14:53] [INFO] Vertex 62 has color 2.
[2024-01-14 14:14:53] [INFO] Vertex 63 has color 1.
[2024-01-14 14:14:53] [INFO] Vertex 64 has color 2.
[2024-01-14 14:14:53] [INFO] Vertex 65 has color 3.
[2024-01-14 14:14:53] [INFO] Vertex 66 has color 2.
[2024-01-14 14:14:53] [INFO] Vertex 67 has color 4.
[2024-01-14 14:14:53] [INFO] Vertex 68 has color 2.
[2024-01-14 14:14:53] [INFO] Vertex 69 has color 2.
[2024-01-14 14:14:53] [INFO] Vertex 70 has color 0.
[2024-01-14 14:14:53] [INFO] Vertex 71 has color 1.
[2024-01-14 14:14:53] [INFO] Vertex 72 has color 2.
[2024-01-14 14:14:53] [INFO] Vertex 73 has color 4.
[2024-01-14 14:14:53] [INFO] Vertex 74 has color 1.
[2024-01-14 14:14:53] [INFO] Vertex 75 has color 3.
[2024-01-14 14:14:53] [INFO] Vertex 76 has color 1.
[2024-01-14 14:14:53] [INFO] Vertex 77 has color 4.
[2024-01-14 14:14:53] [INFO] Vertex 78 has color 3.
[2024-01-14 14:14:53] [INFO] Vertex 79 has color 1.
[2024-01-14 14:14:53] [INFO] Vertex 80 has color 3.
[2024-01-14 14:14:53] [INFO] Vertex 81 has color 3.
[2024-01-14 14:14:53] [INFO] Vertex 82 has color 3.
[2024-01-14 14:14:53] [INFO] Vertex 83 has color 3.
[2024-01-14 14:14:53] [INFO] Vertex 84 has color 3.
[2024-01-14 14:14:53] [INFO] Vertex 85 has color 2.
[2024-01-14 14:14:53] [INFO] Vertex 86 has color 0.
[2024-01-14 14:14:53] [INFO] Vertex 87 has color 1.
[2024-01-14 14:14:53] [INFO] Vertex 88 has color 4.
[2024-01-14 14:14:53] [INFO] Vertex 89 has color 1.
[2024-01-14 14:14:53] [INFO] Vertex 90 has color 4.
[2024-01-14 14:14:53] [INFO] Vertex 91 has color 5.
[2024-01-14 14:14:53] [INFO] Vertex 92 has color 5.
[2024-01-14 14:14:53] [INFO] Vertex 93 has color 1.
[2024-01-14 14:14:53] [INFO] Vertex 94 has color 3.
[2024-01-14 14:14:53] [INFO] Vertex 95 has color 1.
[2024-01-14 14:14:53] [INFO] Vertex 96 has color 1.
[2024-01-14 14:14:53] [INFO] Vertex 97 has color 1.
[2024-01-14 14:14:53] [INFO] Vertex 98 has color 1.
[2024-01-14 14:14:53] [INFO] Vertex 99 has color 6.
[2024-01-14 14:14:53] [INFO] Vertex 100 has color 0.
[2024-01-14 14:14:53] [INFO] Parsing file graph3.txt
[2024-01-14 14:14:53] [INFO] Function parse_graph() was entered. Stream is being parsed into a graph.
[2024-01-14 14:14:53] [INFO] Parsing number of vertices. Number: 100.
[2024-01-14 14:14:53] [INFO] Parsing number of edges. Number: 377.
[2024-01-14 14:14:53] [INFO] Count of edges for Vertex 1 is 5.
[2024-01-14 14:14:53] [INFO] Vertex 1 was successfully parsed and saved to graph.
[2024-01-14 14:14:53] [INFO] Count of edges for Vertex 2 is 11.
[2024-01-14 14:14:53] [INFO] Vertex 2 was successfully parsed and saved to graph.
[2024-01-14 14:14:53] [INFO] Count of edges for Vertex 3 is 8.
[2024-01-14 14:14:53] [INFO] Vertex 3 was successfully parsed and saved to graph.
[2024-01-14 14:14:53] [INFO] Count of edges for Vertex 4 is 8.
[2024-01-14 14:14:53] [INFO] Vertex 4 was successfully parsed and saved to graph.
[2024-01-14 14:14:53] [INFO] Count of edges for Vertex 5 is 7.
[2024-01-14 14:14:53] [INFO] Vertex 5 was successfully parsed and saved to graph.
[2024-01-14 14:14:53] [INFO] Count of edges for Vertex 6 is 6.
[2024-01-14 14:14:53] [INFO] Vertex 6 was successfully parsed and saved to graph.
[2024-01-14 14:14:53] [INFO] Count of edges for Vertex 7 is 7.
[2024-01-14 14:14:53] [INFO] Vertex 7 was successfully parsed and saved to graph.
[2024-01-14 14:14:53] [INFO] Count of edges for Vertex 8 is 8.
[2024-01-14 14:14:53] [INFO] Vertex 8 was successfully parsed and saved to graph.
[2024-01-14 14:14:53] [INFO] Count of edges for Vertex 9 is 8.
[2024-01-14 14:14:53] [INFO] Vertex 9 was successfully parsed and saved to graph.
[2024-01-14 14:14:53] [INFO] Count of edges for Vertex 10 is 9.
[2024-01-14 14:14:53] [INFO] Vertex 10 was successfully parsed and saved to graph.
[2024-01-14 14:14:53] [INFO] Count of edges for Vertex 11 is 5.
[2024-01-14 14:14:53] [INFO] Vertex 11 was successfully parsed and saved to graph.
[2024-01-14 14:14:53] [INFO] Count of edges for Vertex 12 is 6.
[2024-01-14 14:14:53] [INFO] Vertex 12 was successfully parsed and saved to graph.
[2024-01-14 14:14:53] [INFO] Count of edges for Vertex 13 is 9.
[2024-01-14 14:14:53] [INFO] Vertex 13 was successfully parsed and saved to graph.
[2024-01-14 14:14:53] [INFO] Count of edges for Vertex 14 is 13.
[2024-01-14 14:14:53] [INFO] Vertex 14 was successfully parsed and saved to graph.
[2024-01-14 14:14:53] [INFO] Count of edges for Vertex 15 is 8.
[2024-01-14 14:14:53] [INFO] Vertex 15 was successfully parsed and saved to graph.
[2024-01-14 14:14:53] [INFO] Count of edges for Vertex 16 is 6.
[2024-01-14 14:14:53] [INFO] Vertex 16 was successfully parsed and saved to graph.
[2024-01-14 14:14:53] [INFO] Count of edges for Vertex 17 is 10.
[2024-01-14 14:14:53] [INFO] Vertex 17 was successfully parsed and saved to graph.
[2024-01-14 14:14:53] [INFO] Count of edges for Vertex 18 is 3.
[2024-01-14 14:14:53] [INFO] Vertex 18 was successfully parsed and saved to graph.
[2024-01-14 14:14:53] [INFO] Count of edges for Vertex 19 is 8.
[2024-01-14 14:14:53] [INFO] Vertex 19 was successfully parsed and saved to graph.
[2024-01-14 14:14:53] [INFO] Count of edges for Vertex 20 is 8.
[2024-01-14 14:14:53] [INFO] Vertex 20 was successfully parsed and saved to graph.
[2024-01-14 14:14:53] [INFO] Count of edges for Vertex 21 is 6.
[2024-01-14 14:14:53] [INFO] Vertex 21 was successfully parsed and saved to graph.
[2024-01-14 14:14:53] [INFO] Count of edges for Vertex 22 is 7.
[2024-01-14 14:14:53] [INFO] Vertex 22 was successfully parsed and saved to graph.
[2024-01-14 14:14:53] [INFO] Count of edges for Vertex 23 is 10.
[2024-01-14 14:14:53] [INFO] Vertex 23 was successfully parsed and saved to graph.
[2024-01-14 14:14:53] [INFO] Count of edges for Vertex 24 is 8.
[2024-01-14 14:14:53] [INFO] Vertex 24 was successfully parsed and saved to graph.
[2024-01-14 14:14:53] [INFO] Count of edges for Vertex 25 is 8.
[2024-01-14 14:14:53] [INFO] Vertex 25 was successfully parsed and saved to graph.
[2024-01-14 14:14:53] [INFO] Count of edges for Vertex 26 is 7.
[2024-01-14 14:14:53] [INFO] Vertex 26 was successfully parsed and saved to graph.
[2024-01-14 14:14:53] [INFO] Count of edges for Vertex 27 is 5.
[2024-01-14 14:14:53] [INFO] Vertex 27 was successfully parsed and saved to graph.
[2024-01-14 14:14:53] [INFO] Count of edges for Vertex 28 is 10.
[2024-01-14 14:14:53] [INFO] Vertex 28 was successfully parsed and saved to graph.
[2024-01-14 14:14:53] [INFO] Count of edges for Vertex 29 is 5.
[2024-01-14 14:14:53] [INFO] Vertex 29 was successfully parsed and saved to graph.
[2024-01-14 14:14:53] [INFO] Count of edges for Vertex 30 is 7.
[2024-01-14 14:14:53] [INFO] Vertex 30 was successfully parsed and saved to graph.
[2024-01-14 14:14:53] [INFO] Count of edges for Vertex 31 is 5.
[2024-01-14 14:14:53] [INFO] Vertex 31 was successfully parsed and saved to graph.
[2024-01-14 14:14:53] [INFO] Count of edges for Vertex 32 is 8.
[2024-01-14 14:14:53] [INFO] Vertex 32 was successfully parsed and saved to graph.
[2024-01-14 14:14:53] [INFO] Count of edges for Vertex 33 is 6.
[2024-01-14 14:14:53] [INFO] Vertex 33 was successfully parsed and saved to graph.
[2024-01-14 14:14:53] [INFO] Count of edges for Vertex 34 is 9.
[2024-01-14 14:14:53] [INFO] Vertex 34 was successfully parsed and saved to graph.
[2024-01-14 14:14:53] [INFO] Count of edges for Vertex 35 is 4.
[2024-01-14 14:14:53] [INFO] Vertex 35 was successfully parsed and saved to graph.
[2024-01-14 14:14:53] [INFO] Count of edges for Vertex 36 is 4.
[2024-01-14 14:14:53] [INFO] Vertex 36 was successfully parsed and saved to graph.
[2024-01-14 14:14:53] [INFO] Count of edges for Vertex 37 is 9.
[2024-01-14 14:14:53] [INFO] Vertex 37 was successfully parsed and saved to graph.
[2024-01-14 14:14:53] [INFO] Count of edges for Vertex 38 is 8.
[2024-01-14 14:14:53] [INFO] Vertex 38 was successfully parsed and saved to graph.
[2024-01-14 14:14:53] [INFO] Count of edges for Vertex 39 is 7.
[2024-01-14 14:14:53] [INFO] Vertex 39 was successfully parsed and saved to graph.
[2024-01-14 14:14:53] [INFO] Count of edges for Vertex 40 is 4.
[2024-01-14 14:14:53] [INFO] Vertex 40 was successfully parsed and saved to graph.
[2024-01-14 14:14:53] [INFO] Count of edges for Vertex 41 is 9.
[2024-01-14 14:14:53] [INFO] Vertex 41 was successfully parsed and saved to graph.
[2024-01-14 14:14:53] [INFO] Count of edges for Vertex 42 is 6.
[2024-01-14 14:14:53] [INFO] Vertex 42 was successfully parsed and saved to graph.
[2024-01-14 14:14:53] [INFO] Count of edges for Vertex 43 is 4.
[2024-01-14 14:14:53] [INFO] Vertex 43 was successfully parsed and saved to graph.
[2024-01-14 14:14:53] [INFO] Count of edges for Vertex 44 is 8.
[2024-01-14 14:14:53] [INFO] Vertex 44 was successfully parsed and saved to graph.
[2024-01-14 14:14:53] [INFO] Count of edges for Vertex 45 is 8.
[2024-01-14 14:14:53] [INFO] Vertex 45 was successfully parsed and saved to graph.
[2024-01-14 14:14:53] [INFO] Count of edges for Vertex 46 is 8.
[2024-01-14 14:14:53] [INFO] Vertex 46 was successfully parsed and saved to graph.
[2024-01-14 14:14:53] [INFO] Count of edges for Vertex 47 is 14.
[2024-01-14 14:14:53] [INFO] Vertex 47 was successfully parsed and saved to graph.
[2024-01-14 14:14:53] [INFO] Count of edges for Vertex 48 is 5.
[2024-01-14 14:14:53] [INFO] Vertex 48 was successfully parsed and saved to graph.
[2024-01-14 14:14:53] [INFO] Count of edges for Vertex 49 is 8.
[2024-01-14 14:14:53] [INFO] Vertex 49 was successfully parsed and saved to graph.
[2024-01-14 14:14:53] [INFO] Count of edges for Vertex 50 is 10.
[2024-01-14 14:14:53] [INFO] Vertex 50 was successfully parsed and saved to graph.
[2024-01-14 14:14:53] [INFO] Count of edges for Vertex 51 is 6.
[2024-01-14 14:14:53] [INFO] Vertex 51 was successfully parsed and saved to graph.
[2024-01-14 14:14:53] [INFO] Count of edges for Vertex 52 is 9.
[2024-01-14 14:14:53] [INFO] Vertex 52 was successfully parsed and saved to graph.
[2024-01-14 14:14:53] [INFO] Count of edges for Vertex 53 is 6.
[2024-01-14 14:14:53] [INFO] Vertex 53 was successfully parsed and saved to graph.
[2024-01-14 14:14:53] [INFO] Count of edges for Vertex 54 is 11.
[2024-01-14 14:14:53] [INFO] Vertex 54 was successfully parsed and saved to graph.
[2024-01-14 14:14:53] [INFO] Count of edges for Vertex 55 is 8.
[2024-01-14 14:14:53] [INFO] Vertex 55 was successfully parsed and saved to graph.
[2024-01-14 14:14:53] [INFO] Count of edges for Vertex 56 is 11.
[2024-01-14 14:14:53] [INFO] Vertex 56 was successfully parsed and saved to graph.
[2024-01-14 14:14:53] [INFO] Count of edges for Vertex 57 is 7.
[2024-01-14 14:14:53] [INFO] Vertex 57 was successfully parsed and saved to graph.
[2024-01-14 14:14:53] [INFO] Count of edges for Vertex 58 is 11.
[2024-01-14 14:14:53] [INFO] Vertex 58 was successfully parsed and saved to graph.
[2024-01-14 14:14:53] [INFO] Count of edges for Vertex 59 is 7.
[2024-01-14 14:14:53] [INFO] Vertex 59 was successfully parsed and saved to graph.
[2024-01-14 14:14:53] [INFO] Count of edges for Vertex 60 is 2.
[2024-01-14 14:14:53] [INFO] Vertex 60 was successfully parsed and saved to graph.
[2024-01-14 14:14:53] [INFO] Count of edges for Vertex 61 is 10.
[2024-01-14 14:14:53] [INFO] Vertex 61 was successfully parsed and saved to graph.
[2024-01-14 14:14:53] [INFO] Count of edges for Vertex 62 is 8.
[2024-01-14 14:14:53] [INFO] Vertex 62 was successfully parsed and saved to graph.
[2024-01-14 14:14:53] [INFO] Count of edges for Vertex 63 is 7.
[2024-01-14 14:14:53] [INFO] Vertex 63 was successfully parsed and saved to graph.
[2024-01-14 14:14:53] [INFO] Count of edges for Vertex 64 is 10.
[2024-01-14 14:14:53] [INFO] Vertex 64 was successfully parsed and saved to graph.
[2024-01-14 14:14:53] [INFO] Count of edges for Vertex 65 is 10.
[2024-01-14 14:14:53] [INFO] Vertex 65 was successfully parsed and saved to graph.
[2024-01-14 14:14:53] [INFO] Count of edges for Vertex 66 is 8.
[2024-01-14 14:14:53] [INFO] Vertex 66 was successfully parsed and saved to graph.
[2024-01-14 14:14:53] [INFO] Count of edges for Vertex 67 is 8.
[2024-01-14 14:14:53] [INFO] Vertex 67 was successfully parsed and saved to graph.
[2024-01-14 14:14:53] [INFO] Count of edges for Vertex 68 is 8.
[2024-01-14 14:14:53] [INFO] Vertex 68 was successfully parsed and saved to graph.
[2024-01-14 14:14:53] [INFO] Count of edges for Vertex 69 is 6.
[2024-01-14 14:14:53] [INFO] Vertex 69 was successfully parsed and saved to graph.
[2024-01-14 14:14:53] [INFO] Count of edges for Vertex 70 is 5.
[2024-01-14 14:14:53] [INFO] Vertex 70 was successfully parsed and saved to graph.
[2024-01-14 14:14:53] [INFO] Count of edges for Vertex 71 is 7.
[2024-01-14 14:14:53] [INFO] Vertex 71 was successfully parsed and saved to graph.
[2024-01-14 14:14:53] [INFO] Count of edges for Vertex 72 is 4.
[2024-01-14 14:14:53] [INFO] Vertex 72 was successfully parsed and saved to graph.
[2024-01-14 14:14:53] [INFO] Count of edges for Vertex 73 is 9.
[2024-01-14 14:14:53] [INFO] Vertex 73 was successfully parsed and saved to graph.
[2024-01-14 14:14:53] [INFO] Count of edges for Vertex 74 is 6.
[2024-01-14 14:14:53] [INFO] Vertex 74 was successfully parsed and saved to graph.
[2024-01-14 14:14:53] [INFO] Count of edges for Vertex 75 is 6.
[2024-01-14 14:14:53] [INFO] Vertex 75 was successfully parsed and saved to graph.
[2024-01-14 14:14:53] [INFO] Count of edges for Vertex 76 is 11.
[2024-01-14 14:14:53] [INFO] Vertex 76 was successfully parsed and saved to graph.
[2024-01-14 14:14:53] [INFO] Count of edges for Vertex 77 is 10.
[2024-01-14 14:14:53] [INFO] Vertex 77 was successfully parsed and saved to graph.
[2024-01-14 14:14:53] [INFO] Count of edges for Vertex 78 is 12.
[2024-01-14 14:14:53] [INFO] Vertex 78 was successfully parsed and saved to graph.
[2024-01-14 14:14:53] [INFO] Count of edges for Vertex 79 is 9.
[2024-01-14 14:14:53] [INFO] Vertex 79 was successfully parsed and saved to graph.
[2024-01-14 14:14:53] [INFO] Count of edges for Vertex 80 is 8.
[2024-01-14 14:14:53] [INFO] Vertex 80 was successfully parsed and saved to graph.
[2024-01-14 14:14:53] [INFO] Count of edges for Vertex 81 is 5.
[2024-01-14 14:14:53] [INFO] Vertex 81 was successfully parsed and saved to graph.
[2024-01-14 14:14:53] [INFO] Count of edges for Vertex 82 is 3.
[2024-01-14 14:14:53] [INFO] Vertex 82 was successfully parsed and saved to graph.
[2024-01-14 14:14:53] [INFO] Count of edges for Vertex 83 is 8.
[2024-01-14 14:14:53] [INFO] Vertex 83 was successfully parsed and saved to graph.
[2024-01-14 14:14:53] [INFO] Count of edges for Vertex 84 is 9.
[2024-01-14 14:14:53] [INFO] Vertex 84 was successfully parsed and saved to graph.
[2024-01-14 14:14:53] [INFO] Count of edges for Vertex 85 is 5.
[2024-01-14 14:14:53] [INFO] Vertex 85 was successfully parsed and saved to graph.
[2024-01-14 14:14:53] [INFO] Count of edges for Vertex 86 is 2.
[2024-01-14 14:14:53] [INFO] Vertex 86 was successfully parsed and saved to graph.
[2024-01-14 14:14:53] [INFO] Count of edges for Vertex 87 is 11.
[2024-01-14 14:14:53] [INFO] Vertex 87 was successfully parsed and saved to graph.
[2024-01-14 14:14:53] [INFO] Count of edges for Vertex 88 is 8.
[2024-01-14 14:14:53] [INFO] Vertex 88 was successfully parsed and saved to graph.
[2024-01-14 14:14:53] [INFO] Count of edges for Vertex 89 is 4.
[2024-01-14 14:14:53] [INFO] Vertex 89 was successfully parsed and saved to graph.
[2024-01-14 14:14:53] [INFO] Count of edges for Vertex 90 is 9.
[2024-01-14 14:14:53] [INFO] Vertex 90 was successfully parsed and saved to graph.
[2024-01-14 14:14:53] [INFO] Count of edges for Vertex 91 is 14.
[2024-01-14 14:14:53] [INFO] Vertex 91 was successfully parsed and saved to graph.
[2024-01-14 14:14:53] [INFO] Count of edges for Vertex 92 is 10.
[2024-01-14 14:14:53] [INFO] Vertex 92 was successfully parsed and saved to graph.
[2024-01-14 14:14:53] [INFO] Count of edges for Vertex 93 is 7.
[2024-01-14 14:14:53] [INFO] Vertex 93 was successfully parsed and saved to graph.
[2024-01-14 14:14:53] [INFO] Count of edges for Vertex 94 is 9.
[2024-01-14 14:14:53] [INFO] Vertex 94 was successfully parsed and saved to graph.
[2024-01-14 14:14:53] [INFO] Count of edges for Vertex 95 is 6.
[2024-01-14 14:14:53] [INFO] Vertex 95 was successfully parsed and saved to graph.
[2024-01-14 14:14:53] [INFO] Count of edges for Vertex 96 is 6.
[2024-01-14 14:14:53] [INFO] Vertex 96 was successfully parsed and saved to graph.
[2024-01-14 14:14:53] [INFO] Count of edges for Vertex 97 is 3.
[2024-01-14 14:14:53] [INFO] Vertex 97 was successfully parsed and saved to graph.
[2024-01-14 14:14:53] [INFO] Count of edges for Vertex 98 is 5.
[2024-01-14 14:14:53] [INFO] Vertex 98 was successfully parsed and saved to graph.
[2024-01-14 14:14:53] [INFO] Count of edges for Vertex 99 is 14.
[2024-01-14 14:14:53] [INFO] Vertex 99 was successfully parsed and saved to graph.
[2024-01-14 14:14:53] [INFO] Count of edges for Vertex 100 is 6.
[2024-01-14 14:14:53] [INFO] Vertex 100 was successfully parsed and saved to graph.
[2024-01-14 14:14:53] [INFO] Stream was successfully parsed to graph.
[2024-01-14 14:14:53] [INFO] Recursive largest first algorithm started.

[2024-01-14 14:14:53] [INFO] Recursive largest first needed 316 ms to finish.

[2024-01-14 14:14:53] [INFO] Vertex 1 has color 0.
[2024-01-14 14:14:53] [INFO] Vertex 2 has color 2.
[2024-01-14 14:14:53] [INFO] Vertex 3 has color 1.
[2024-01-14 14:14:53] [INFO] Vertex 4 has color 2.
[2024-01-14 14:14:53] [INFO] Vertex 5 has color 1.
[2024-01-14 14:14:53] [INFO] Vertex 6 has color 1.
[2024-01-14 14:14:53] [INFO] Vertex 7 has color 1.
[2024-01-14 14:14:53] [INFO] Vertex 8 has color 1.
[2024-01-14 14:14:53] [INFO] Vertex 9 has color 0.
[2024-01-14 14:14:53] [INFO] Vertex 10 has color 1.
[2024-01-14 14:14:53] [INFO] Vertex 11 has color 0.
[2024-01-14 14:14:53] [INFO] Vertex 12 has color 1.
[2024-01-14 14:14:53] [INFO] Vertex 13 has color 3.
[2024-01-14 14:14:53] [INFO] Vertex 14 has color 0.
[2024-01-14 14:14:53] [INFO] Vertex 15 has color 1.
[2024-01-14 14:14:53] [INFO] Vertex 16 has color 2.
[2024-01-14 14:14:53] [INFO] Vertex 17 has color 2.
[2024-01-14 14:14:53] [INFO] Vertex 18 has color 0.
[2024-01-14 14:14:53] [INFO] Vertex 19 has color 2.
[2024-01-14 14:14:53] [INFO] Vertex 20 has color 1.
[2024-01-14 14:14:53] [INFO] Vertex 21 has color 1.
[2024-01-14 14:14:53] [INFO] Vertex 22 has color 3.
[2024-01-14 14:14:53] [INFO] Vertex 23 has color 1.
[2024-01-14 14:14:53] [INFO] Vertex 24 has color 3.
[2024-01-14 14:14:53] [INFO] Vertex 25 has color 2.
[2024-01-14 14:14:53] [INFO] Vertex 26 has color 1.
[2024-01-14 14:14:53] [INFO] Vertex 27 has color 1.
[2024-01-14 14:14:53] [INFO] Vertex 28 has color 2.
[2024-01-14 14:14:53] [INFO] Vertex 29 has color 2.
[2024-01-14 14:14:53] [INFO] Vertex 30 has color 3.
[2024-01-14 14:14:53] [INFO] Vertex 31 has color 1.
[2024-01-14 14:14:53] [INFO] Vertex 32 has color 0.
[2024-01-14 14:14:53] [INFO] Vertex 33 has color 2.
[2024-01-14 14:14:53] [INFO] Vertex 34 has color 0.
[2024-01-14 14:14:53] [INFO] Vertex 35 has color 2.
[2024-01-14 14:14:53] [INFO] Vertex 36 has color 2.
[2024-01-14 14:14:53] [INFO] Vertex 37 has color 3.
[2024-01-14 14:14:53] [INFO] Vertex 38 has color 0.
[2024-01-14 14:14:53] [INFO] Vertex 39 has color 0.
[2024-01-14 14:14:53] [INFO] Vertex 40 has color 3.
[2024-01-14 14:14:53] [INFO] Vertex 41 has color 1.
[2024-01-14 14:14:53] [INFO] Vertex 42 has color 1.
[2024-01-14 14:14:53] [INFO] Vertex 43 has color 0.
[2024-01-14 14:14:53] [INFO] Vertex 44 has color 0.
[2024-01-14 14:14:53] [INFO] Vertex 45 has color 3.
[2024-01-14 14:14:53] [INFO] Vertex 46 has color 1.
[2024-01-14 14:14:53] [INFO] Vertex 47 has color 0.
[2024-01-14 14:14:53] [INFO] Vertex 48 has color 3.
[2024-01-14 14:14:53] [INFO] Vertex 49 has color 1.
[2024-01-14 14:14:53] [INFO] Vertex 50 has color 0.
[2024-01-14 14:14:53] [INFO] Vertex 51 has color 0.
[2024-01-14 14:14:53] [INFO] Vertex 52 has color 0.
[2024-01-14 14:14:53] [INFO] Vertex 53 has color 1.
[2024-01-14 14:14:53] [INFO] Vertex 54 has color 1.
[2024-01-14 14:14:53] [INFO] Vertex 55 has color 3.
[2024-01-14 14:14:53] [INFO] Vertex 56 has color 2.
[2024-01-14 14:14:53] [INFO] Vertex 57 has color 0.
[2024-01-14 14:14:53] [INFO] Vertex 58 has color 0.
[2024-01-14 14:14:53] [INFO] Vertex 59 has color 2.
[2024-01-14 14:14:53] [INFO] Vertex 60 has color 1.
[2024-01-14 14:14:53] [INFO] Vertex 61 has color 2.
[2024-01-14 14:14:53] [INFO] Vertex 62 has color 4.
[2024-01-14 14:14:53] [INFO] Vertex 63 has color 0.
[2024-01-14 14:14:53] [INFO] Vertex 64 has color 2.
[2024-01-14 14:14:53] [INFO] Vertex 65 has color 2.
[2024-01-14 14:14:53] [INFO] Vertex 66 has color 0.
[2024-01-14 14:14:53] [INFO] Vertex 67 has color 4.
[2024-01-14 14:14:53] [INFO] Vertex 68 has color 3.
[2024-01-14 14:14:53] [INFO] Vertex 69 has color 0.
[2024-01-14 14:14:53] [INFO] Vertex 70 has color 3.
[2024-01-14 14:14:53] [INFO] Vertex 71 has color 3.
[2024-01-14 14:14:53] [INFO] Vertex 72 has color 0.
[2024-01-14 14:14:53] [INFO] Vertex 73 has color 0.
[2024-01-14 14:14:53] [INFO] Vertex 74 has color 2.
[2024-01-14 14:14:53] [INFO] Vertex 75 has color 2.
[2024-01-14 14:14:53] [INFO] Vertex 76 has color 2.
[2024-01-14 14:14:53] [INFO] Vertex 77 has color 3.
[2024-01-14 14:14:53] [INFO] Vertex 78 has color 1.
[2024-01-14 14:14:53] [INFO] Vertex 79 has color 4.
[2024-01-14 14:14:53] [INFO] Vertex 80 has color 2.
[2024-01-14 14:14:53] [INFO] Vertex 81 has color 2.
[2024-01-14 14:14:53] [INFO] Vertex 82 has color 0.
[2024-01-14 14:14:53] [INFO] Vertex 83 has color 2.
[2024-01-14 14:14:53] [INFO] Vertex 84 has color 1.
[2024-01-14 14:14:53] [INFO] Vertex 85 has color 3.
[2024-01-14 14:14:53] [INFO] Vertex 86 has color 0.
[2024-01-14 14:14:53] [INFO] Vertex 87 has color 3.
[2024-01-14 14:14:53] [INFO] Vertex 88 has color 0.
[2024-01-14 14:14:53] [INFO] Vertex 89 has color 3.
[2024-01-14 14:14:53] [INFO] Vertex 90 has color 1.
[2024-01-14 14:14:53] [INFO] Vertex 91 has color 0.
[2024-01-14 14:14:53] [INFO] Vertex 92 has color 2.
[2024-01-14 14:14:53] [INFO] Vertex 93 has color 2.
[2024-01-14 14:14:53] [INFO] Vertex 94 has color 3.
[2024-01-14 14:14:53] [INFO] Vertex 95 has color 3.
[2024-01-14 14:14:53] [INFO] Vertex 96 has color 2.
[2024-01-14 14:14:53] [INFO] Vertex 97 has color 1.
[2024-01-14 14:14:53] [INFO] Vertex 98 has color 3.
[2024-01-14 14:14:53] [INFO] Vertex 99 has color 0.
[2024-01-14 14:14:53] [INFO] Vertex 100 has color 1.
[2024-01-14 14:14:53] [INFO] Parsing file graph3.txt
[2024-01-14 14:14:53] [INFO] Function parse_graph() was entered. Stream is being parsed into a graph.
[2024-01-14 14:14:53] [INFO] Parsing number of vertices. Number: 100.
[2024-01-14 14:14:53] [INFO] Parsing number of edges. Number: 377.
[2024-01-14 14:14:53] [INFO] Count of edges for Vertex 1 is 5.
[2024-01-14 14:14:53] [INFO] Vertex 1 was successfully parsed and saved to graph.
[2024-01-14 14:14:53] [INFO] Count of edges for Vertex 2 is 11.
[2024-01-14 14:14:53] [INFO] Vertex 2 was successfully parsed and saved to graph.
[2024-01-14 14:14:53] [INFO] Count of edges for Vertex 3 is 8.
[2024-01-14 14:14:53] [INFO] Vertex 3 was successfully parsed and saved to graph.
[2024-01-14 14:14:53] [INFO] Count of edges for Vertex 4 is 8.
[2024-01-14 14:14:53] [INFO] Vertex 4 was successfully parsed and saved to graph.
[2024-01-14 14:14:53] [INFO] Count of edges for Vertex 5 is 7.
[2024-01-14 14:14:53] [INFO] Vertex 5 was successfully parsed and saved to graph.
[2024-01-14 14:14:53] [INFO] Count of edges for Vertex 6 is 6.
[2024-01-14 14:14:53] [INFO] Vertex 6 was successfully parsed and saved to graph.
[2024-01-14 14:14:53] [INFO] Count of edges for Vertex 7 is 7.
[2024-01-14 14:14:53] [INFO] Vertex 7 was successfully parsed and saved to graph.
[2024-01-14 14:14:53] [INFO] Count of edges for Vertex 8 is 8.
[2024-01-14 14:14:53] [INFO] Vertex 8 was successfully parsed and saved to graph.
[2024-01-14 14:14:53] [INFO] Count of edges for Vertex 9 is 8.
[2024-01-14 14:14:53] [INFO] Vertex 9 was successfully parsed and saved to graph.
[2024-01-14 14:14:53] [INFO] Count of edges for Vertex 10 is 9.
[2024-01-14 14:14:53] [INFO] Vertex 10 was successfully parsed and saved to graph.
[2024-01-14 14:14:53] [INFO] Count of edges for Vertex 11 is 5.
[2024-01-14 14:14:53] [INFO] Vertex 11 was successfully parsed and saved to graph.
[2024-01-14 14:14:53] [INFO] Count of edges for Vertex 12 is 6.
[2024-01-14 14:14:53] [INFO] Vertex 12 was successfully parsed and saved to graph.
[2024-01-14 14:14:53] [INFO] Count of edges for Vertex 13 is 9.
[2024-01-14 14:14:53] [INFO] Vertex 13 was successfully parsed and saved to graph.
[2024-01-14 14:14:53] [INFO] Count of edges for Vertex 14 is 13.
[2024-01-14 14:14:53] [INFO] Vertex 14 was successfully parsed and saved to graph.
[2024-01-14 14:14:53] [INFO] Count of edges for Vertex 15 is 8.
[2024-01-14 14:14:53] [INFO] Vertex 15 was successfully parsed and saved to graph.
[2024-01-14 14:14:53] [INFO] Count of edges for Vertex 16 is 6.
[2024-01-14 14:14:53] [INFO] Vertex 16 was successfully parsed and saved to graph.
[2024-01-14 14:14:53] [INFO] Count of edges for Vertex 17 is 10.
[2024-01-14 14:14:53] [INFO] Vertex 17 was successfully parsed and saved to graph.
[2024-01-14 14:14:53] [INFO] Count of edges for Vertex 18 is 3.
[2024-01-14 14:14:53] [INFO] Vertex 18 was successfully parsed and saved to graph.
[2024-01-14 14:14:53] [INFO] Count of edges for Vertex 19 is 8.
[2024-01-14 14:14:53] [INFO] Vertex 19 was successfully parsed and saved to graph.
[2024-01-14 14:14:53] [INFO] Count of edges for Vertex 20 is 8.
[2024-01-14 14:14:53] [INFO] Vertex 20 was successfully parsed and saved to graph.
[2024-01-14 14:14:53] [INFO] Count of edges for Vertex 21 is 6.
[2024-01-14 14:14:53] [INFO] Vertex 21 was successfully parsed and saved to graph.
[2024-01-14 14:14:53] [INFO] Count of edges for Vertex 22 is 7.
[2024-01-14 14:14:53] [INFO] Vertex 22 was successfully parsed and saved to graph.
[2024-01-14 14:14:53] [INFO] Count of edges for Vertex 23 is 10.
[2024-01-14 14:14:53] [INFO] Vertex 23 was successfully parsed and saved to graph.
[2024-01-14 14:14:53] [INFO] Count of edges for Vertex 24 is 8.
[2024-01-14 14:14:53] [INFO] Vertex 24 was successfully parsed and saved to graph.
[2024-01-14 14:14:53] [INFO] Count of edges for Vertex 25 is 8.
[2024-01-14 14:14:53] [INFO] Vertex 25 was successfully parsed and saved to graph.
[2024-01-14 14:14:53] [INFO] Count of edges for Vertex 26 is 7.
[2024-01-14 14:14:53] [INFO] Vertex 26 was successfully parsed and saved to graph.
[2024-01-14 14:14:53] [INFO] Count of edges for Vertex 27 is 5.
[2024-01-14 14:14:53] [INFO] Vertex 27 was successfully parsed and saved to graph.
[2024-01-14 14:14:53] [INFO] Count of edges for Vertex 28 is 10.
[2024-01-14 14:14:53] [INFO] Vertex 28 was successfully parsed and saved to graph.
[2024-01-14 14:14:53] [INFO] Count of edges for Vertex 29 is 5.
[2024-01-14 14:14:53] [INFO] Vertex 29 was successfully parsed and saved to graph.
[2024-01-14 14:14:53] [INFO] Count of edges for Vertex 30 is 7.
[2024-01-14 14:14:53] [INFO] Vertex 30 was successfully parsed and saved to graph.
[2024-01-14 14:14:53] [INFO] Count of edges for Vertex 31 is 5.
[2024-01-14 14:14:53] [INFO] Vertex 31 was successfully parsed and saved to graph.
[2024-01-14 14:14:53] [INFO] Count of edges for Vertex 32 is 8.
[2024-01-14 14:14:53] [INFO] Vertex 32 was successfully parsed and saved to graph.
[2024-01-14 14:14:53] [INFO] Count of edges for Vertex 33 is 6.
[2024-01-14 14:14:53] [INFO] Vertex 33 was successfully parsed and saved to graph.
[2024-01-14 14:14:53] [INFO] Count of edges for Vertex 34 is 9.
[2024-01-14 14:14:53] [INFO] Vertex 34 was successfully parsed and saved to graph.
[2024-01-14 14:14:53] [INFO] Count of edges for Vertex 35 is 4.
[2024-01-14 14:14:53] [INFO] Vertex 35 was successfully parsed and saved to graph.
[2024-01-14 14:14:53] [INFO] Count of edges for Vertex 36 is 4.
[2024-01-14 14:14:53] [INFO] Vertex 36 was successfully parsed and saved to graph.
[2024-01-14 14:14:53] [INFO] Count of edges for Vertex 37 is 9.
[2024-01-14 14:14:53] [INFO] Vertex 37 was successfully parsed and saved to graph.
[2024-01-14 14:14:53] [INFO] Count of edges for Vertex 38 is 8.
[2024-01-14 14:14:53] [INFO] Vertex 38 was successfully parsed and saved to graph.
[2024-01-14 14:14:53] [INFO] Count of edges for Vertex 39 is 7.
[2024-01-14 14:14:53] [INFO] Vertex 39 was successfully parsed and saved to graph.
[2024-01-14 14:14:53] [INFO] Count of edges for Vertex 40 is 4.
[2024-01-14 14:14:53] [INFO] Vertex 40 was successfully parsed and saved to graph.
[2024-01-14 14:14:53] [INFO] Count of edges for Vertex 41 is 9.
[2024-01-14 14:14:53] [INFO] Vertex 41 was successfully parsed and saved to graph.
[2024-01-14 14:14:53] [INFO] Count of edges for Vertex 42 is 6.
[2024-01-14 14:14:53] [INFO] Vertex 42 was successfully parsed and saved to graph.
[2024-01-14 14:14:53] [INFO] Count of edges for Vertex 43 is 4.
[2024-01-14 14:14:53] [INFO] Vertex 43 was successfully parsed and saved to graph.
[2024-01-14 14:14:53] [INFO] Count of edges for Vertex 44 is 8.
[2024-01-14 14:14:53] [INFO] Vertex 44 was successfully parsed and saved to graph.
[2024-01-14 14:14:53] [INFO] Count of edges for Vertex 45 is 8.
[2024-01-14 14:14:53] [INFO] Vertex 45 was successfully parsed and saved to graph.
[2024-01-14 14:14:53] [INFO] Count of edges for Vertex 46 is 8.
[2024-01-14 14:14:53] [INFO] Vertex 46 was successfully parsed and saved to graph.
[2024-01-14 14:14:53] [INFO] Count of edges for Vertex 47 is 14.
[2024-01-14 14:14:53] [INFO] Vertex 47 was successfully parsed and saved to graph.
[2024-01-14 14:14:53] [INFO] Count of edges for Vertex 48 is 5.
[2024-01-14 14:14:53] [INFO] Vertex 48 was successfully parsed and saved to graph.
[2024-01-14 14:14:53] [INFO] Count of edges for Vertex 49 is 8.
[2024-01-14 14:14:53] [INFO] Vertex 49 was successfully parsed and saved to graph.
[2024-01-14 14:14:53] [INFO] Count of edges for Vertex 50 is 10.
[2024-01-14 14:14:53] [INFO] Vertex 50 was successfully parsed and saved to graph.
[2024-01-14 14:14:53] [INFO] Count of edges for Vertex 51 is 6.
[2024-01-14 14:14:53] [INFO] Vertex 51 was successfully parsed and saved to graph.
[2024-01-14 14:14:53] [INFO] Count of edges for Vertex 52 is 9.
[2024-01-14 14:14:53] [INFO] Vertex 52 was successfully parsed and saved to graph.
[2024-01-14 14:14:53] [INFO] Count of edges for Vertex 53 is 6.
[2024-01-14 14:14:53] [INFO] Vertex 53 was successfully parsed and saved to graph.
[2024-01-14 14:14:53] [INFO] Count of edges for Vertex 54 is 11.
[2024-01-14 14:14:53] [INFO] Vertex 54 was successfully parsed and saved to graph.
[2024-01-14 14:14:53] [INFO] Count of edges for Vertex 55 is 8.
[2024-01-14 14:14:53] [INFO] Vertex 55 was successfully parsed and saved to graph.
[2024-01-14 14:14:53] [INFO] Count of edges for Vertex 56 is 11.
[2024-01-14 14:14:53] [INFO] Vertex 56 was successfully parsed and saved to graph.
[2024-01-14 14:14:53] [INFO] Count of edges for Vertex 57 is 7.
[2024-01-14 14:14:53] [INFO] Vertex 57 was successfully parsed and saved to graph.
[2024-01-14 14:14:53] [INFO] Count of edges for Vertex 58 is 11.
[2024-01-14 14:14:53] [INFO] Vertex 58 was successfully parsed and saved to graph.
[2024-01-14 14:14:53] [INFO] Count of edges for Vertex 59 is 7.
[2024-01-14 14:14:53] [INFO] Vertex 59 was successfully parsed and saved to graph.
[2024-01-14 14:14:53] [INFO] Count of edges for Vertex 60 is 2.
[2024-01-14 14:14:53] [INFO] Vertex 60 was successfully parsed and saved to graph.
[2024-01-14 14:14:53] [INFO] Count of edges for Vertex 61 is 10.
[2024-01-14 14:14:53] [INFO] Vertex 61 was successfully parsed and saved to graph.
[2024-01-14 14:14:53] [INFO] Count of edges for Vertex 62 is 8.
[2024-01-14 14:14:53] [INFO] Vertex 62 was successfully parsed and saved to graph.
[2024-01-14 14:14:53] [INFO] Count of edges for Vertex 63 is 7.
[2024-01-14 14:14:53] [INFO] Vertex 63 was successfully parsed and saved to graph.
[2024-01-14 14:14:53] [INFO] Count of edges for Vertex 64 is 10.
[2024-01-14 14:14:53] [INFO] Vertex 64 was successfully parsed and saved to graph.
[2024-01-14 14:14:53] [INFO] Count of edges for Vertex 65 is 10.
[2024-01-14 14:14:53] [INFO] Vertex 65 was successfully parsed and saved to graph.
[2024-01-14 14:14:53] [INFO] Count of edges for Vertex 66 is 8.
[2024-01-14 14:14:53] [INFO] Vertex 66 was successfully parsed and saved to graph.
[2024-01-14 14:14:53] [INFO] Count of edges for Vertex 67 is 8.
[2024-01-14 14:14:53] [INFO] Vertex 67 was successfully parsed and saved to graph.
[2024-01-14 14:14:53] [INFO] Count of edges for Vertex 68 is 8.
[2024-01-14 14:14:53] [INFO] Vertex 68 was successfully parsed and saved to graph.
[2024-01-14 14:14:53] [INFO] Count of edges for Vertex 69 is 6.
[2024-01-14 14:14:53] [INFO] Vertex 69 was successfully parsed and saved to graph.
[2024-01-14 14:14:53] [INFO] Count of edges for Vertex 70 is 5.
[2024-01-14 14:14:53] [INFO] Vertex 70 was successfully parsed and saved to graph.
[2024-01-14 14:14:53] [INFO] Count of edges for Vertex 71 is 7.
[2024-01-14 14:14:53] [INFO] Vertex 71 was successfully parsed and saved to graph.
[2024-01-14 14:14:53] [INFO] Count of edges for Vertex 72 is 4.
[2024-01-14 14:14:53] [INFO] Vertex 72 was successfully parsed and saved to graph.
[2024-01-14 14:14:53] [INFO] Count of edges for Vertex 73 is 9.
[2024-01-14 14:14:53] [INFO] Vertex 73 was successfully parsed and saved to graph.
[2024-01-14 14:14:53] [INFO] Count of edges for Vertex 74 is 6.
[2024-01-14 14:14:53] [INFO] Vertex 74 was successfully parsed and saved to graph.
[2024-01-14 14:14:53] [INFO] Count of edges for Vertex 75 is 6.
[2024-01-14 14:14:53] [INFO] Vertex 75 was successfully parsed and saved to graph.
[2024-01-14 14:14:53] [INFO] Count of edges for Vertex 76 is 11.
[2024-01-14 14:14:53] [INFO] Vertex 76 was successfully parsed and saved to graph.
[2024-01-14 14:14:53] [INFO] Count of edges for Vertex 77 is 10.
[2024-01-14 14:14:53] [INFO] Vertex 77 was successfully parsed and saved to graph.
[2024-01-14 14:14:53] [INFO] Count of edges for Vertex 78 is 12.
[2024-01-14 14:14:53] [INFO] Vertex 78 was successfully parsed and saved to graph.
[2024-01-14 14:14:53] [INFO] Count of edges for Vertex 79 is 9.
[2024-01-14 14:14:53] [INFO] Vertex 79 was successfully parsed and saved to graph.
[2024-01-14 14:14:53] [INFO] Count of edges for Vertex 80 is 8.
[2024-01-14 14:14:53] [INFO] Vertex 80 was successfully parsed and saved to graph.
[2024-01-14 14:14:53] [INFO] Count of edges for Vertex 81 is 5.
[2024-01-14 14:14:53] [INFO] Vertex 81 was successfully parsed and saved to graph.
[2024-01-14 14:14:53] [INFO] Count of edges for Vertex 82 is 3.
[2024-01-14 14:14:53] [INFO] Vertex 82 was successfully parsed and saved to graph.
[2024-01-14 14:14:53] [INFO] Count of edges for Vertex 83 is 8.
[2024-01-14 14:14:53] [INFO] Vertex 83 was successfully parsed and saved to graph.
[2024-01-14 14:14:53] [INFO] Count of edges for Vertex 84 is 9.
[2024-01-14 14:14:53] [INFO] Vertex 84 was successfully parsed and saved to graph.
[2024-01-14 14:14:53] [INFO] Count of edges for Vertex 85 is 5.
[2024-01-14 14:14:53] [INFO] Vertex 85 was successfully parsed and saved to graph.
[2024-01-14 14:14:53] [INFO] Count of edges for Vertex 86 is 2.
[2024-01-14 14:14:53] [INFO] Vertex 86 was successfully parsed and saved to graph.
[2024-01-14 14:14:53] [INFO] Count of edges for Vertex 87 is 11.
[2024-01-14 14:14:53] [INFO] Vertex 87 was successfully parsed and saved to graph.
[2024-01-14 14:14:53] [INFO] Count of edges for Vertex 88 is 8.
[2024-01-14 14:14:53] [INFO] Vertex 88 was successfully parsed and saved to graph.
[2024-01-14 14:14:53] [INFO] Count of edges for Vertex 89 is 4.
[2024-01-14 14:14:53] [INFO] Vertex 89 was successfully parsed and saved to graph.
[2024-01-14 14:14:53] [INFO] Count of edges for Vertex 90 is 9.
[2024-01-14 14:14:53] [INFO] Vertex 90 was successfully parsed and saved to graph.
[2024-01-14 14:14:53] [INFO] Count of edges for Vertex 91 is 14.
[2024-01-14 14:14:53] [INFO] Vertex 91 was successfully parsed and saved to graph.
[2024-01-14 14:14:53] [INFO] Count of edges for Vertex 92 is 10.
[2024-01-14 14:14:53] [INFO] Vertex 92 was successfully parsed and saved to graph.
[2024-01-14 14:14:53] [INFO] Count of edges for Vertex 93 is 7.
[2024-01-14 14:14:53] [INFO] Vertex 93 was successfully parsed and saved to graph.
[2024-01-14 14:14:53] [INFO] Count of edges for Vertex 94 is 9.
[2024-01-14 14:14:53] [INFO] Vertex 94 was successfully parsed and saved to graph.
[2024-01-14 14:14:53] [INFO] Count of edges for Vertex 95 is 6.
[2024-01-14 14:14:53] [INFO] Vertex 95 was successfully parsed and saved to graph.
[2024-01-14 14:14:53] [INFO] Count of edges for Vertex 96 is 6.
[2024-01-14 14:14:53] [INFO] Vertex 96 was successfully parsed and saved to graph.
[2024-01-14 14:14:53] [INFO] Count of edges for Vertex 97 is 3.
[2024-01-14 14:14:53] [INFO] Vertex 97 was successfully parsed and saved to graph.
[2024-01-14 14:14:53] [INFO] Count of edges for Vertex 98 is 5.
[2024-01-14 14:14:53] [INFO] Vertex 98 was successfully parsed and saved to graph.
[2024-01-14 14:14:53] [INFO] Count of edges for Vertex 99 is 14.
[2024-01-14 14:14:53] [INFO] Vertex 99 was successfully parsed and saved to graph.
[2024-01-14 14:14:53] [INFO] Count of edges for Vertex 100 is 6.
[2024-01-14 14:14:53] [INFO] Vertex 100 was successfully parsed and saved to graph.
[2024-01-14 14:14:53] [INFO] Stream was successfully parsed to graph.
[2024-01-14 14:14:53] [INFO] DSatur algorithm started.

[2024-01-14 14:14:53] [INFO] DSatur needed 18 ms to finish.

[2024-01-14 14:14:53] [INFO] Vertex 1 has color 2.
[2024-01-14 14:14:53] [INFO] Vertex 2 has color 1.
[2024-01-14 14:14:53] [INFO] Vertex 3 has color 0.
[2024-01-14 14:14:53] [INFO] Vertex 4 has color 1.
[2024-01-14 14:14:53] [INFO] Vertex 5 has color 1.
[2024-01-14 14:14:53] [INFO] Vertex 6 has color 4.
[2024-01-14 14:14:53] [INFO] Vertex 7 has color 3.
[2024-01-14 14:14:53] [INFO] Vertex 8 has color 2.
[2024-01-14 14:14:53] [INFO] Vertex 9 has color 2.
[2024-01-14 14:14:53] [INFO] Vertex 10 has color 2.
[2024-01-14 14:14:53] [INFO] Vertex 11 has color 3.
[2024-01-14 14:14:53] [INFO] Vertex 12 has color 1.
[2024-01-14 14:14:53] [INFO] Vertex 13 has color 2.
[2024-01-14 14:14:53] [INFO] Vertex 14 has color 0.
[2024-01-14 14:14:53] [INFO] Vertex 15 has color 2.
[2024-01-14 14:14:53] [INFO] Vertex 16 has color 1.
[2024-01-14 14:14:53] [INFO] Vertex 17 has color 1.
[2024-01-14 14:14:53] [INFO] Vertex 18 has color 0.
[2024-01-14 14:14:53] [INFO] Vertex 19 has color 0.
[2024-01-14 14:14:53] [INFO] Vertex 20 has color 1.
[2024-01-14 14:14:53] [INFO] Vertex 21 has color 0.
[2024-01-14 14:14:53] [INFO] Vertex 22 has color 3.
[2024-01-14 14:14:53] [INFO] Vertex 23 has color 1.
[2024-01-14 14:14:53] [INFO] Vertex 24 has color 2.
[2024-01-14 14:14:53] [INFO] Vertex 25 has color 1.
[2024-01-14 14:14:53] [INFO] Vertex 26 has color 5.
[2024-01-14 14:14:53] [INFO] Vertex 27 has color 2.
[2024-01-14 14:14:53] [INFO] Vertex 28 has color 2.
[2024-01-14 14:14:53] [INFO] Vertex 29 has color 1.
[2024-01-14 14:14:53] [INFO] Vertex 30 has color 3.
[2024-01-14 14:14:53] [INFO] Vertex 31 has color 0.
[2024-01-14 14:14:53] [INFO] Vertex 32 has color 1.
[2024-01-14 14:14:53] [INFO] Vertex 33 has color 4.
[2024-01-14 14:14:53] [INFO] Vertex 34 has color 0.
[2024-01-14 14:14:53] [INFO] Vertex 35 has color 0.
[2024-01-14 14:14:53] [INFO] Vertex 36 has color 2.
[2024-01-14 14:14:53] [INFO] Vertex 37 has color 1.
[2024-01-14 14:14:53] [INFO] Vertex 38 has color 3.
[2024-01-14 14:14:53] [INFO] Vertex 39 has color 2.
[2024-01-14 14:14:53] [INFO] Vertex 40 has color 0.
[2024-01-14 14:14:53] [INFO] Vertex 41 has color 3.
[2024-01-14 14:14:53] [INFO] Vertex 42 has color 4.
[2024-01-14 14:14:53] [INFO] Vertex 43 has color 0.
[2024-01-14 14:14:53] [INFO] Vertex 44 has color 0.
[2024-01-14 14:14:53] [INFO] Vertex 45 has color 0.
[2024-01-14 14:14:53] [INFO] Vertex 46 has color 1.
[2024-01-14 14:14:53] [INFO] Vertex 47 has color 0.
[2024-01-14 14:14:53] [INFO] Vertex 48 has color 3.
[2024-01-14 14:14:53] [INFO] Vertex 49 has color 1.
[2024-01-14 14:14:53] [INFO] Vertex 50 has color 0.
[2024-01-14 14:14:53] [INFO] Vertex 51 has color 3.
[2024-01-14 14:14:53] [INFO] Vertex 52 has color 0.
[2024-01-14 14:14:53] [INFO] Vertex 53 has color 2.
[2024-01-14 14:14:53] [INFO] Vertex 54 has color 1.
[2024-01-14 14:14:53] [INFO] Vertex 55 has color 3.
[2024-01-14 14:14:53] [INFO] Vertex 56 has color 2.
[2024-01-14 14:14:53] [INFO] Vertex 57 has color 2.
[2024-01-14 14:14:53] [INFO] Vertex 58 has color 0.
[2024-01-14 14:14:53] [INFO] Vertex 59 has color 3.
[2024-01-14 14:14:53] [INFO] Vertex 60 has color 0.
[2024-01-14 14:14:53] [INFO] Vertex 61 has color 1.
[2024-01-14 14:14:53] [INFO] Vertex 62 has color 4.
[2024-01-14 14:14:53] [INFO] Vertex 63 has color 5.
[2024-01-14 14:14:53] [INFO] Vertex 64 has color 1.
[2024-01-14 14:14:53] [INFO] Vertex 65 has color 3.
[2024-01-14 14:14:53] [INFO] Vertex 66 has color 0.
[2024-01-14 14:14:53] [INFO] Vertex 67 has color 4.
[2024-01-14 14:14:53] [INFO] Vertex 68 has color 3.
[2024-01-14 14:14:53] [INFO] Vertex 69 has color 2.
[2024-01-14 14:14:53] [INFO] Vertex 70 has color 1.
[2024-01-14 14:14:53] [INFO] Vertex 71 has color 0.
[2024-01-14 14:14:53] [INFO] Vertex 72 has color 1.
[2024-01-14 14:14:53] [INFO] Vertex 73 has color 2.
[2024-01-14 14:14:53] [INFO] Vertex 74 has color 0.
[2024-01-14 14:14:53] [INFO] Vertex 75 has color 2.
[2024-01-14 14:14:53] [INFO] Vertex 76 has color 1.
[2024-01-14 14:14:53] [INFO] Vertex 77 has color 3.
[2024-01-14 14:14:53] [INFO] Vertex 78 has color 2.
[2024-01-14 14:14:53] [INFO] Vertex 79 has color 0.
[2024-01-14 14:14:53] [INFO] Vertex 80 has color 2.
[2024-01-14 14:14:53] [INFO] Vertex 81 has color 4.
[2024-01-14 14:14:53] [INFO] Vertex 82 has color 0.
[2024-01-14 14:14:53] [INFO] Vertex 83 has color 2.
[2024-01-14 14:14:53] [INFO] Vertex 84 has color 1.
[2024-01-14 14:14:53] [INFO] Vertex 85 has color 0.
[2024-01-14 14:14:53] [INFO] Vertex 86 has color 0.
[2024-01-14 14:14:53] [INFO] Vertex 87 has color 1.
[2024-01-14 14:14:53] [INFO] Vertex 88 has color 2.
[2024-01-14 14:14:53] [INFO] Vertex 89 has color 2.
[2024-01-14 14:14:53] [INFO] Vertex 90 has color 0.
[2024-01-14 14:14:53] [INFO] Vertex 91 has color 0.
[2024-01-14 14:14:53] [INFO] Vertex 92 has color 2.
[2024-01-14 14:14:53] [INFO] Vertex 93 has color 3.
[2024-01-14 14:14:53] [INFO] Vertex 94 has color 3.
[2024-01-14 14:14:53] [INFO] Vertex 95 has color 3.
[2024-01-14 14:14:53] [INFO] Vertex 96 has color 0.
[2024-01-14 14:14:53] [INFO] Vertex 97 has color 3.
[2024-01-14 14:14:53] [INFO] Vertex 98 has color 0.
[2024-01-14 14:14:53] [INFO] Vertex 99 has color 3.
[2024-01-14 14:14:53] [INFO] Vertex 100 has color 4.
