Number of vertices: 200
Number of edges: 12120
Vertex 1: 128 2 3 4 7 8 10 11 12 13 14 16 18 21 24 25 26 27 28 29 31 33 34 35 39 41 42 44 45 49 52 53 54 55 56 57 61 62 63 64 65 66 68 69 70 71 73 74 75 79 80 81 83 85 86 87 90 91 97 98 99 100 102 106 107 109 110 112 114 115 116 118 119 121 122 123 125 126 127 128 131 132 133 134 135 136 137 139 140 141 142 144 145 146 148 149 150 151 152 153 154 156 158 159 160 162 164 165 166 167 170 171 172 174 175 176 177 178 179 181 182 187 189 190 192 193 195 196 199
Vertex 2: 125 1 3 5 6 7 8 9 10 14 15 16 17 18 19 21 22 23 24 27 28 29 34 35 37 39 40 42 44 46 47 48 51 53 55 56 57 58 61 62 64 65 66 67 70 71 74 79 84 85 86 87 91 92 94 95 96 97 98 99 101 104 107 108 109 110 111 112 113 114 117 118 122 123 124 125 126 128 129 130 133 134 135 136 137 142 144 145 146 149 150 151 152 155 157 158 160 161 162 165 167 169 170 171 174 175 177 178 179 180 181 182 183 184 185 187 188 189 190 192 193 195 196 197 198 199
Vertex 3: 121 1 2 4 5 11 14 16 17 18 19 20 21 23 25 27 29 30 31 32 33 34 35 36 37 38 39 40 41 44 46 48 49 51 53 55 57 60 62 63 64 65 68 69 70 71 72 73 74 76 77 79 80 81 83 86 87 88 90 91 92 93 94 95 100 101 102 105 106 108 109 111 112 113 114 115 117 118 121 123 125 129 130 131 132 133 134 135 136 137 139 145 150 151 152 154 155 156 157 159 165 166 169 171 172 173 174 177 178 180 181 182 183 184 186 187 188 189 190 193 196 198
Vertex 4: 121 1 3 5 6 7 8 9 10 11 14 15 16 17 18 20 21 22 23 24 26 29 32 33 37 39 40 41 42 43 44 45 47 48 49 54 55 56 57 59 60 62 64 67 68 69 70 72 73 75 76 78 82 83 84 86 87 90 93 94 96 98 100 101 105 106 107 108 112 115 116 117 118 120 122 123 126 127 130 131 132 133 134 135 136 137 142 143 145 146 149 151 152 153 154 155 157 159 162 164 166 167 168 169 170 172 175 176 177 178 180 181 183 186 188 189 191 193 194 196 199 200
Vertex 5: 135 2 3 4 6 7 8 9 10 11 12 13 14 17 19 22 25 27 29 30 31 32 35 37 38 39 40 42 43 45 47 48 49 51 52 54 55 56 58 59 60 61 62 63 64 66 67 68 69 72 73 74 77 78 80 81 83 84 85 86 87 89 92 96 97 98 99 100 101 102 103 104 106 107 109 111 112 114 115 117 118 119 120 121 122 124 125 126 127 128 131 133 135 139 142 143 144 145 147 148 151 152 154 155 156 157 158 160 161 164 165 166 167 168 169 170 171 175 177 178 181 182 183 185 186 187 188 189 190 191 193 194 196 198 199 200
Vertex 6: 120 2 4 5 7 10 11 16 17 18 19 20 23 25 26 27 28 29 30 31 33 34 36 38 40 41 43 44 48 49 50 51 52 53 54 55 58 60 62 63 64 65 66 67 68 70 71 75 78 81 83 85 86 87 88 89 90 91 92 94 95 97 98 99 103 104 105 106 107 108 110 113 115 116 117 120 121 122 125 128 130 131 132 134 135 137 139 140 142 143 145 150 152 153 154 155 156 157 158 159 161 162 164 168 173 174 175 179 180 181 184 187 188 189 191 192 193 194 195 196 200
Vertex 7: 122 1 2 4 5 6 8 9 16 17 20 21 22 23 24 25 28 29 30 31 32 33 34 35 36 37 43 44 45 46 48 49 50 51 53 54 57 65 66 67 68 69 70 72 73 75 76 77 79 82 83 85 86 87 91 94 95 96 98 99 101 102 103 104 105 106 109 110 112 113 114 116 119 120 121 123 124 126 127 128 129 130 131 134 135 138 140 141 143 144 145 148 150 151 152 155 156 157 160 161 162 163 165 166 167 168 169 170 171 173 181 182 185 186 187 188 190 191 192 194 197 199 200
Vertex 8: 124 1 2 4 5 7 9 10 12 13 15 17 18 20 21 22 24 26 27 28 29 30 32 34 35 36 37 38 39 41 42 43 44 45 46 47 49 50 51 53 54 55 57 58 59 63 65 68 72 76 80 81 88 90 91 92 95 96 97 98 99 100 102 105 106 107 111 113 115 118 119 123 124 125 126 127 129 130 131 132 133 134 135 136 137 138 140 141 142 144 147 148 150 151 152 153 156 158 159 160 162 163 166 168 170 172 173 174 176 178 179 181 182 184 186 188 189 190 192 193 194 197 198 199 200
Vertex 9: 128 2 4 5 7 8 10 11 12 14 16 17 18 19 21 22 23 24 27 29 30 32 33 36 37 38 39 40 41 43 44 45 46 48 49 51 52 54 55 56 57 60 61 62 63 64 65 66 67 70 71 72 75 76 77 78 79 80 81 84 85 86 87 88 89 91 92 93 94 95 98 99 102 103 105 106 109 110 114 116 117 118 120 124 125 126 128 129 131 132 133 134 136 139 140 141 142 145 148 149 150 151 153 156 161 163 164 166 167 168 169 170 172 173 178 180 181 182 184 186 188 189 190 191 192 193 195 197 200
Vertex 10: 133 1 2 4 5 6 8 9 13 14 15 16 17 19 21 23 25 26 27 28 29 31 34 35 36 37 39 42 43 44 46 47 49 51 52 53 54 55 56 58 59 60 61 62 64 65 66 67 68 70 71 72 73 74 75 77 78 80 81 82 86 87 88 89 91 94 95 96 97 99 100 101 102 103 104 108 109 110 111 112 113 114 115 116 118 119 122 124 126 127 128 129 131 132 133 135 136 137 138 139 141 145 149 151 152 153 154 155 157 158 162 163 164 166 169 170 171 174 176 179 180 181 182 183 188 189 190 192 193 194 195 196 197 199
Vertex 11: 114 1 3 4 5 6 9 13 16 17 19 20 25 26 27 29 30 31 32 35 37 38 39 41 43 44 45 46 47 49 50 51 52 53 54 55 58 60 61 64 65 66 69 71 72 73 74 77 78 81 82 83 84 85 86 88 94 96 97 98 101 102 103 104 105 107 108 111 113 115 116 117 118 120 123 124 125 127 130 131 135 139 140 143 144 145 146 149 150 151 153 154 155 161 164 166 167 170 171 175 177 180 182 183 185 186 188 189 190 191 193 194 195 198 200
Vertex 12: 136 1 5 8 9 14 15 16 17 18 19 20 23 24 25 26 27 29 30 31 33 34 35 36 37 38 39 40 42 43 44 45 46 47 50 52 54 55 56 57 58 59 60 61 64 66 67 68 69 70 71 75 79 80 81 82 85 86 88 89 91 92 93 94 95 96 97 98 99 101 102 103 104 105 106 107 109 110 111 113 114 115 117 118 120 121 122 124 125 127 128 129 131 132 133 134 135 136 138 139 141 143 144 145 149 152 158 160 161 162 164 165 166 167 168 169 170 172 173 174 177 180 181 182 183 186 187 188 189 190 192 193 196 197 198 199 200
Vertex 13: 105 1 5 8 10 11 14 16 17 18 19 24 27 29 31 32 33 34 35 36 37 39 41 44 47 50 51 52 53 55 57 58 60 63 67 68 71 72 74 77 79 80 81 82 83 85 86 87 91 94 96 97 99 101 104 105 106 107 108 112 113 120 121 124 126 127 129 130 131 132 134 135 136 137 138 139 140 144 145 146 148 151 153 154 155 158 159 160 161 168 169 170 172 175 176 178 179 182 183 184 185 188 192 194 198 200
Vertex 14: 120 1 2 3 4 5 9 10 12 13 15 16 17 20 21 23 26 27 30 31 32 33 35 40 42 45 47 48 51 54 55 56 57 58 60 63 64 65 67 68 71 72 73 74 76 78 79 80 81 85 88 89 90 92 93 96 97 98 99 100 102 103 104 105 106 107 110 111 113 116 117 119 120 121 122 123 124 126 128 130 131 134 135 136 138 140 142 143 144 146 147 148 149 151 153 155 156 159 166 167 168 172 174 175 176 179 180 181 182 184 186 187 188 190 191 192 193 195 196 198 200
Vertex 15: 115 2 4 8 10 12 14 16 17 18 19 20 21 22 25 27 28 30 31 32 33 34 35 37 38 41 42 43 45 49 51 52 53 54 56 58 62 63 64 67 68 69 70 71 74 77 79 82 83 84 87 88 89 92 94 98 99 101 102 103 105 106 108 109 110 115 118 120 123 124 125 127 129 130 131 132 133 134 135 136 137 138 139 140 141 142 144 145 150 151 153 155 156 158 162 163 164 165 167 168 170 171 172 173 178 179 185 186 187 188 189 190 191 192 194 196
Vertex 16: 125 1 2 3 4 6 7 9 10 11 12 13 14 15 19 20 21 22 23 27 29 31 33 36 37 38 39 40 41 46 47 49 50 51 53 54 58 59 60 66 68 70 72 73 79 80 82 83 85 88 89 90 91 93 94 95 96 97 98 101 102 103 104 105 107 108 109 110 112 113 114 116 117 118 119 120 121 122 123 124 125 128 129 132 133 134 135 137 138 139 141 142 143 146 148 149 151 152 153 156 157 158 161 162 163 164 165 168 169 170 171 172 173 174 175 178 179 183 185 186 190 191 193 195 196 198
Vertex 17: 121 2 3 4 5 6 7 8 9 10 11 12 13 14 15 18 21 22 23 24 26 27 31 32 33 34 36 37 38 39 42 44 47 50 55 62 63 65 66 68 70 71 73 74 77 78 79 80 82 84 85 86 87 88 89 90 91 92 93 97 99 102 103 104 105 108 109 110 111 112 113 114 115 116 121 123 125 126 127 128 131 132 134 135 137 138 140 141 142 143 148 152 153 155 158 160 161 162 163 165 167 170 171 172 173 174 175 176 177 179 183 185 188 189 190 191 192 193 194 196 198 200
Vertex 18: 128 1 2 3 4 6 8 9 12 13 15 17 22 25 26 27 30 31 32 34 35 36 37 39 40 42 44 45 46 49 50 51 52 53 54 55 58 59 64 65 66 71 73 75 76 79 80 81 82 83 84 86 87 89 90 91 93 94 96 97 99 100 102 103 104 106 107 108 109 112 113 114 115 116 117 118 119 120 123 126 127 128 131 133 134 135 137 139 140 141 147 148 149 150 152 154 156 157 160 163 164 165 166 167 168 169 170 174 176 178 179 180 182 183 184 185 186 188 189 190 191 192 193 195 196 197 198 199 200
Vertex 19: 118 2 3 5 6 9 10 11 12 13 15 16 20 21 23 24 26 27 28 31 32 33 34 35 36 38 39 41 42 44 45 46 47 49 51 52 53 57 58 62 63 64 67 69 71 74 75 76 81 82 84 85 86 87 89 91 92 93 95 97 99 100 106 107 108 109 111 112 114 116 117 120 121 122 128 129 132 133 134 135 136 137 139 141 143 144 145 146 147 149 150 154 156 157 162 164 165 168 169 170 171 173 175 176 177 179 180 181 183 185 187 190 191 192 194 195 196 199 200
Vertex 20: 117 3 4 6 7 8 11 12 14 15 16 19 21 24 25 26 27 28 29 30 32 34 35 36 37 40 41 46 47 48 49 51 53 54 55 56 57 60 61 63 64 69 73 74 77 78 80 81 83 84 86 87 88 89 91 92 95 96 97 99 100 101 103 104 107 108 109 111 114 115 116 117 118 119 120 121 123 126 128 129 131 132 133 134 136 137 138 139 140 142 145 146 147 148 150 152 155 158 160 162 165 166 168 170 173 177 178 179 180 185 189 190 191 192 195 196 198 199
Vertex 21: 118 1 2 3 4 7 8 9 10 14 15 16 17 19 20 22 23 25 26 28 29 30 31 32 33 35 38 39 43 46 47 48 49 54 55 56 59 60 61 62 64 65 66 68 69 72 73 75 76 77 79 80 82 83 84 85 86 90 93 94 97 99 100 101 105 107 109 111 112 113 115 118 119 120 121 123 125 128 130 132 134 135 136 137 138 139 143 144 145 147 148 149 151 152 154 156 162 163 165 166 167 168 169 171 172 176 177 178 180 183 185 188 189 192 193 194 195 198 200
Vertex 22: 130 2 4 5 7 8 9 15 16 17 18 21 26 28 29 30 31 33 36 37 41 42 43 45 46 47 48 49 50 51 54 57 58 59 60 61 62 63 66 68 69 71 74 76 77 78 79 80 81 82 85 87 88 89 90 91 92 93 94 96 99 101 102 105 107 110 111 112 118 119 120 123 124 125 126 127 128 129 130 131 132 133 134 135 136 137 138 140 143 144 145 146 147 148 150 151 154 155 156 157 158 159 160 161 163 164 165 166 167 169 170 171 172 173 175 176 177 178 180 181 183 184 187 188 189 192 193 195 196 197 200
Vertex 23: 121 2 3 4 6 7 9 10 12 14 16 17 19 21 24 27 28 29 30 31 32 33 34 35 36 37 39 40 41 42 43 45 46 47 48 49 51 53 54 55 60 61 62 64 65 66 69 70 72 73 74 78 79 80 81 82 84 85 87 88 90 92 96 98 99 100 101 104 105 106 109 110 113 114 115 116 117 118 121 126 129 130 131 132 135 137 138 139 143 144 145 147 153 155 158 159 163 165 166 168 169 171 172 173 174 175 176 178 179 180 184 186 187 189 190 191 192 194 195 197 199 200
Vertex 24: 127 1 2 4 7 8 9 12 13 17 19 20 23 26 27 28 30 32 33 34 35 37 38 40 41 43 44 45 46 47 49 50 51 53 54 55 56 57 59 60 61 62 63 64 66 67 68 69 70 72 73 74 75 76 79 82 84 85 86 87 89 90 93 95 96 97 99 100 101 104 105 107 108 109 111 112 116 118 120 124 125 126 128 129 131 133 135 139 140 141 145 146 149 150 151 152 154 155 157 158 159 160 162 163 164 166 170 171 172 173 174 175 176 178 180 182 185 186 187 188 189 190 191 192 193 196 198 199
Vertex 25: 116 1 3 5 6 7 10 11 12 15 18 20 21 27 28 29 30 36 38 42 43 44 45 47 49 50 57 58 59 61 62 63 64 65 70 71 72 74 76 77 78 79 81 83 88 90 91 92 94 95 97 98 99 100 101 102 103 104 107 110 111 113 115 117 119 120 122 123 124 125 127 130 131 132 133 134 135 137 140 142 143 144 145 146 147 148 149 151 153 154 156 157 158 160 163 164 166 167 168 171 172 173 177 179 182 184 187 189 190 192 193 194 196 197 198 199 200
Vertex 26: 125 1 4 6 8 10 11 12 14 17 18 19 20 21 22 24 28 29 31 34 35 38 39 40 41 42 45 47 48 49 50 52 53 54 55 56 59 61 62 63 64 65 66 67 68 69 71 73 75 76 78 83 85 86 87 88 89 90 92 93 98 99 103 104 107 108 109 110 111 112 114 115 116 118 119 120 122 123 124 125 126 130 131 139 140 144 145 146 147 148 150 151 152 153 155 156 158 159 162 163 164 165 167 168 169 170 171 172 175 176 180 181 183 184 185 187 189 190 191 192 194 195 197 198 199 200
Vertex 27: 123 1 2 3 5 6 8 9 10 11 12 13 14 15 16 17 18 19 20 23 24 25 30 31 33 34 35 38 39 41 43 44 45 47 48 52 54 56 60 61 62 65 67 68 70 75 77 78 79 80 81 83 90 91 92 93 94 95 98 99 102 103 106 107 108 109 110 111 112 116 117 118 119 120 121 122 124 125 126 127 128 130 132 133 134 135 138 141 143 144 145 148 150 151 152 154 156 157 158 159 160 161 162 164 167 168 169 170 171 175 176 178 179 180 185 187 188 190 193 195 196 198 199 200
Vertex 28: 132 1 2 6 7 8 10 15 19 20 21 22 23 24 25 26 29 30 31 33 34 35 36 37 38 39 40 41 42 43 44 47 48 49 51 53 55 56 59 60 61 63 64 65 66 67 70 71 72 73 75 76 77 78 79 80 82 84 85 88 89 90 91 92 93 96 97 99 100 101 102 105 106 108 109 110 112 115 117 118 121 122 123 125 126 127 128 132 133 135 137 138 139 141 143 144 145 146 148 150 151 153 154 155 156 157 158 159 160 162 163 164 166 167 169 170 171 172 173 174 176 178 179 182 183 184 185 186 190 191 192 195 199
Vertex 29: 111 1 2 3 4 5 6 7 8 9 10 11 12 13 16 20 21 22 23 25 26 28 30 35 36 37 39 41 43 46 48 49 50 51 56 58 59 60 61 62 63 64 67 69 73 76 77 78 79 80 83 84 86 88 89 92 96 98 99 100 102 103 104 108 111 113 114 117 118 119 121 122 123 124 125 126 128 130 132 134 135 138 142 144 146 148 149 150 152 157 158 159 162 164 169 170 172 179 180 184 185 186 187 189 191 193 194 195 196 197 199 200
Vertex 30: 113 3 5 6 7 8 9 11 12 14 15 18 20 21 22 23 24 25 27 28 29 31 32 34 36 37 39 41 42 43 44 47 48 53 56 57 59 61 64 65 67 69 73 74 76 77 78 79 81 83 85 95 96 97 98 99 100 102 103 104 105 106 108 110 111 113 115 116 118 124 125 126 129 131 132 133 135 136 137 138 143 145 148 149 150 154 155 157 158 159 160 161 163 164 165 168 169 170 171 172 173 178 180 182 184 187 188 189 190 191 195 197 198 199
Vertex 31: 128 1 3 5 6 7 10 11 12 13 14 15 16 17 18 19 21 22 23 26 27 28 30 35 36 38 42 43 44 45 50 51 52 53 54 56 57 58 59 60 63 66 67 68 70 71 72 75 76 78 79 84 85 86 87 89 90 91 93 95 97 98 99 100 101 102 103 105 106 107 108 109 110 111 113 114 115 116 120 121 123 124 125 127 128 129 131 132 134 136 139 140 142 144 145 146 147 148 149 152 153 154 155 157 158 161 163 165 166 168 169 170 171 172 174 175 177 180 181 186 187 188 189 192 194 195 197 198 199
Vertex 32: 118 3 4 5 7 8 9 11 13 14 15 17 18 19 20 21 23 24 30 38 39 40 41 42 43 45 47 49 50 51 54 57 58 59 61 66 69 70 71 72 74 77 82 83 84 85 87 88 89 90 92 93 98 99 100 102 103 105 106 107 109 111 113 114 116 117 118 119 121 122 123 124 126 127 128 130 131 132 133 134 135 136 139 141 144 146 152 154 156 157 158 160 161 163 164 167 168 169 170 171 172 173 174 175 176 178 179 183 184 186 190 192 193 195 196 197 198 199 200
Vertex 33: 124 1 3 4 6 7 9 12 13 14 15 16 17 19 21 22 23 24 27 28 34 35 36 38 39 41 42 44 45 46 47 48 49 52 53 56 57 58 59 60 61 62 64 65 68 69 70 74 75 76 77 79 81 83 85 87 88 89 90 93 95 96 98 99 100 102 103 104 105 106 108 109 110 112 113 115 116 117 118 119 121 123 126 128 129 132 134 137 138 139 142 143 144 145 146 147 148 153 156 158 161 162 165 167 168 171 174 175 177 178 179 182 183 184 187 188 189 190 194 195 196 197 198 199 200
Vertex 34: 120 1 2 3 6 7 8 10 12 13 15 17 18 19 20 23 24 26 27 28 30 33 35 37 39 41 44 45 46 47 49 51 53 55 58 59 62 63 64 65 68 69 71 74 75 76 77 78 79 81 82 83 84 85 86 87 92 95 96 98 100 101 102 104 107 109 111 112 114 115 118 120 121 122 123 126 127 130 135 136 137 138 139 140 143 144 146 148 149 150 151 154 156 159 160 162 165 166 167 168 169 170 173 174 175 177 179 180 181 183 184 187 189 190 191 192 193 194 195 199 200
Vertex 35: 122 1 2 3 5 7 8 10 11 12 13 14 15 18 19 20 21 23 24 26 27 28 29 31 33 34 38 39 40 41 43 44 45 46 47 49 51 52 53 54 55 56 57 58 60 62 63 66 67 70 71 72 75 76 77 78 79 80 81 82 83 84 86 87 88 90 91 98 99 100 101 103 105 108 109 112 113 117 118 120 121 122 124 125 128 129 131 133 134 138 141 142 144 145 146 147 148 149 150 152 154 160 163 164 165 166 171 172 173 174 180 184 185 186 187 189 190 191 192 193 194 199 200
Vertex 36: 118 3 6 7 8 9 10 12 13 16 17 18 19 20 22 23 25 28 29 30 31 33 37 38 40 41 42 45 46 47 48 50 53 55 56 57 58 59 60 61 62 63 64 68 69 70 72 76 77 78 80 82 83 85 86 87 88 91 96 97 98 99 105 106 107 108 109 110 111 113 116 117 120 121 124 125 126 127 129 130 132 133 135 136 138 140 141 142 145 146 147 150 151 152 156 157 159 161 163 164 165 168 170 172 174 175 176 177 178 179 180 181 182 185 186 187 191 194 198
Vertex 37: 116 2 3 4 5 7 8 9 10 11 12 13 15 16 17 18 20 22 23 24 28 29 30 34 36 38 39 46 47 48 53 54 57 58 59 60 63 68 69 71 73 76 78 79 81 83 84 85 86 87 88 89 91 93 96 97 100 103 105 106 107 108 109 111 113 115 116 117 118 119 120 121 123 124 125 126 127 128 129 130 133 134 135 136 138 139 140 141 142 144 149 151 152 153 156 157 158 160 161 162 163 165 170 174 175 177 179 181 182 183 184 185 186 190 193 196 200
Vertex 38: 114 3 5 6 8 9 11 12 15 16 17 19 21 24 25 26 27 28 31 32 33 35 36 37 39 40 41 42 43 44 54 55 57 59 60 62 64 65 67 68 69 70 72 73 74 79 80 81 82 84 88 89 90 94 96 97 99 100 101 103 104 106 111 112 114 115 116 117 118 119 120 122 123 124 125 126 127 129 130 131 132 133 134 136 138 139 140 142 144 145 146 149 151 152 154 156 161 168 169 170 171 172 174 176 177 178 180 182 184 189 194 195 197 198 199
Vertex 39: 134 1 2 3 4 5 8 9 10 11 12 13 16 17 18 19 21 23 26 27 28 29 30 32 33 34 35 37 38 41 42 46 49 50 51 53 55 57 59 60 61 62 63 66 67 70 71 73 74 76 78 81 83 84 86 87 88 89 90 92 96 97 99 101 102 104 106 107 108 109 110 111 112 114 115 117 118 119 121 122 123 124 125 127 128 130 133 135 136 137 138 141 142 143 144 145 147 150 151 153 154 155 156 157 158 160 162 163 164 165 166 167 168 169 170 171 173 174 177 180 181 182 183 184 185 186 187 189 191 192 194 195 196 197 200
Vertex 40: 116 2 3 4 5 6 9 12 14 16 18 20 23 24 26 28 32 35 36 38 41 42 43 45 46 47 50 51 53 54 55 56 58 59 60 61 65 67 68 69 70 72 73 74 75 76 78 79 80 81 83 84 85 86 88 95 96 97 98 99 102 104 107 108 111 112 113 114 116 117 118 120 121 123 125 126 130 131 132 134 136 139 140 141 142 143 144 145 146 150 151 157 160 161 162 163 164 165 166 167 173 174 176 177 179 181 182 183 184 186 188 189 192 193 194 195 200
Vertex 41: 127 1 3 4 6 8 9 11 13 15 16 19 20 22 23 24 26 27 28 29 30 32 33 34 35 36 38 39 40 42 44 45 46 49 53 57 58 61 62 63 64 65 66 69 70 73 76 77 80 81 82 86 89 91 92 93 94 96 97 98 99 100 101 104 107 108 109 110 111 112 114 115 118 119 120 121 122 125 128 129 130 132 133 134 135 137 138 142 144 145 146 148 149 150 153 154 155 156 157 158 160 162 163 164 165 167 168 169 170 173 175 177 178 179 180 182 183 184 187 190 191 192 193 194 195 196 197 199
Vertex 42: 124 1 2 4 5 8 10 12 14 15 17 18 19 22 23 25 26 28 30 31 32 33 36 38 39 40 41 43 44 47 48 49 50 51 55 56 59 60 62 63 64 65 66 67 68 69 70 71 73 74 78 79 80 84 85 86 87 89 90 92 94 95 97 98 100 101 103 105 106 107 108 114 116 120 122 123 125 126 128 129 131 133 134 135 136 138 142 143 145 147 148 149 150 151 152 153 154 156 157 159 160 161 162 166 167 168 171 173 174 175 176 178 179 180 182 183 185 190 191 194 195 196 197 198 199
Vertex 43: 115 4 5 6 7 8 9 10 11 12 15 21 22 23 24 25 27 28 29 30 31 32 35 38 40 42 44 45 48 49 50 53 55 57 59 60 65 66 67 68 69 70 72 74 77 78 79 80 81 82 85 86 88 90 92 94 96 99 100 101 102 103 105 108 109 110 111 112 113 114 116 119 124 126 129 130 132 133 134 137 138 140 141 142 143 144 148 149 155 156 157 158 162 163 165 168 169 171 173 174 175 176 177 178 179 182 183 184 188 189 190 193 194 195 196 200
Vertex 44: 135 1 2 3 4 6 7 8 9 10 11 12 13 17 18 19 24 25 27 28 30 31 33 34 35 38 41 42 43 46 48 49 50 53 54 55 56 58 60 61 64 65 67 69 70 73 74 76 77 78 79 80 81 83 84 86 87 88 89 91 94 95 96 97 98 99 100 101 103 104 105 107 108 111 113 115 117 118 119 120 121 122 123 124 125 126 128 130 131 132 133 134 135 137 138 139 140 141 142 146 149 150 151 152 153 155 156 157 159 161 162 163 164 165 166 167 169 171 172 173 175 176 177 178 179 183 184 187 188 189 190 191 192 197 199 200
Vertex 45: 113 1 4 5 7 8 9 11 12 14 15 18 19 22 23 24 25 26 27 31 32 33 34 35 36 40 41 43 47 49 50 53 55 56 59 60 63 64 67 70 71 72 74 75 77 80 81 82 84 85 86 90 91 92 95 96 97 98 99 100 101 104 106 109 110 111 112 114 116 119 120 121 123 124 126 128 136 137 138 140 141 143 146 147 148 149 150 151 152 153 155 156 158 159 160 162 165 167 169 172 176 178 179 181 182 184 185 186 189 190 191 194 196 197
Vertex 46: 111 2 3 7 8 9 10 11 12 16 18 19 20 21 22 23 24 29 33 34 35 36 37 39 40 41 44 48 49 53 54 55 56 58 60 63 70 71 72 74 76 79 80 81 85 86 88 90 92 93 94 95 97 98 99 101 102 103 104 106 108 110 112 114 115 117 118 119 120 122 124 128 130 132 133 137 139 141 142 144 148 149 150 152 153 154 155 157 158 160 161 164 165 167 168 170 172 173 174 175 177 178 179 180 182 185 191 193 194 195 196 199
Vertex 47: 124 2 4 5 8 10 11 12 13 14 16 17 19 20 21 22 23 24 25 26 27 28 30 32 33 34 35 36 37 40 42 45 48 49 51 52 53 54 55 56 57 58 59 60 62 63 64 67 69 72 73 74 75 76 78 79 81 85 86 88 90 91 92 93 94 95 98 100 101 102 103 105 106 109 112 115 117 119 122 123 124 127 129 131 132 135 136 139 140 142 143 144 145 149 150 153 154 156 157 158 159 160 161 162 164 165 168 170 172 175 177 178 181 182 183 184 187 188 189 190 193 194 195 198 200
Vertex 48: 124 2 3 4 5 6 7 9 14 20 21 22 23 26 27 28 29 30 33 36 37 42 43 44 46 47 49 51 54 55 56 57 59 60 61 63 64 65 66 67 69 71 72 73 74 75 80 81 82 84 85 86 88 89 90 93 95 97 98 99 100 103 105 106 107 108 109 110 113 114 115 116 118 119 120 121 122 124 127 128 130 131 132 133 134 135 136 137 138 139 141 145 147 153 154 159 160 162 163 164 165 166 167 168 170 172 173 174 175 176 177 181 183 184 185 186 187 188 189 190 192 193 195 198 199
Vertex 49: 127 1 3 4 5 6 7 8 9 10 11 15 16 18 19 20 21 22 23 24 25 26 28 29 32 33 34 35 39 41 42 43 44 45 46 47 48 50 51 52 56 57 59 60 61 62 63 64 65 67 69 70 71 72 73 74 76 77 78 79 82 83 86 87 88 91 92 94 99 100 102 105 109 110 112 113 115 116 117 118 121 122 123 125 126 127 128 129 131 132 133 136 138 139 140 141 142 143 144 145 146 148 150 156 157 158 159 161 163 164 173 174 175 176 177 180 182 185 186 187 188 189 192 196 197 198 199 200
Vertex 50: 124 6 7 8 11 12 13 16 17 18 22 24 25 26 29 31 32 36 39 40 42 43 44 45 49 52 53 54 55 56 57 60 61 63 64 65 67 68 69 70 71 72 74 75 76 77 78 80 83 85 86 87 91 93 95 96 99 101 102 103 104 107 108 109 110 111 112 113 117 119 120 122 123 125 128 129 130 131 132 133 136 137 138 139 140 141 142 143 144 148 149 151 152 153 156 159 160 161 162 163 165 166 167 169 170 171 172 173 174 175 178 180 182 185 187 188 190 191 192 193 194 196 197 199 200
Vertex 51: 123 2 3 5 6 7 8 9 10 11 13 14 15 16 18 19 20 22 23 24 28 29 31 32 34 35 39 40 42 47 48 49 52 53 55 56 57 58 59 60 61 62 63 64 65 66 67 68 70 71 72 73 77 78 79 82 83 84 86 87 89 91 93 94 97 98 100 102 103 105 107 110 115 118 119 121 126 127 129 130 131 135 136 138 139 142 144 145 146 148 150 151 152 153 156 158 159 160 161 163 164 167 168 169 170 171 172 173 174 175 176 180 181 182 186 188 190 191 192 193 194 195 196 199
Vertex 52: 121 1 5 6 9 10 11 12 13 15 18 19 26 27 31 33 35 47 49 50 51 54 55 56 58 59 60 62 63 64 68 70 74 75 77 79 80 83 84 85 86 87 91 92 94 95 96 97 99 100 101 103 104 106 107 108 109 110 111 116 117 118 121 123 124 125 126 127 128 129 130 131 132 133 134 135 136 137 138 139 140 141 143 144 145 147 148 153 154 155 156 158 160 161 162 163 165 166 168 169 172 173 174 175 176 177 178 179 184 186 187 188 189 190 191 193 194 195 196 197 198 199
Vertex 53: 124 1 2 3 6 7 8 10 11 13 15 16 18 19 20 23 24 26 28 30 31 33 34 35 36 37 39 40 41 43 44 45 46 47 50 51 55 57 58 59 60 61 62 65 66 67 68 70 72 73 77 82 84 85 86 88 89 92 93 94 102 103 106 108 111 113 115 116 118 119 121 123 124 125 126 127 128 129 130 132 135 138 139 140 141 142 144 145 149 151 152 153 154 156 157 159 162 163 166 168 170 172 173 174 175 176 177 178 180 181 183 184 186 187 188 189 190 191 192 193 194 195 196 199 200
Vertex 54: 113 1 4 5 6 7 8 9 10 11 12 14 15 16 18 20 21 22 23 24 26 27 31 32 35 37 38 40 44 46 47 48 50 52 55 56 57 59 63 64 70 73 74 75 82 83 84 85 86 87 89 90 91 97 98 100 101 102 103 104 106 108 111 114 116 119 120 121 123 125 126 128 129 131 133 134 135 136 137 138 139 140 144 145 146 150 152 153 154 156 161 163 164 165 166 167 169 171 172 173 174 177 178 180 181 182 183 184 186 192 194 195 196 197
Vertex 55: 131 1 2 3 4 5 6 8 9 10 11 12 13 14 17 18 20 21 23 24 26 28 34 35 36 38 39 40 42 43 44 45 46 47 48 50 51 52 53 54 56 57 58 59 60 62 64 65 67 70 71 72 73 74 76 77 78 79 80 81 82 83 84 87 89 90 91 93 95 96 97 101 105 106 107 108 109 110 111 114 117 119 120 121 122 123 124 125 126 127 130 131 132 135 136 137 141 143 146 148 149 150 152 155 158 161 163 165 166 167 171 172 173 175 177 179 180 181 182 183 184 185 186 187 188 190 193 194 195 196 197 200
Vertex 56: 117 1 2 4 5 9 10 12 14 15 20 21 24 26 27 28 29 30 31 33 35 36 40 42 44 45 46 47 48 49 50 51 52 54 55 58 59 62 64 65 68 73 74 77 80 84 85 86 87 88 89 90 91 94 95 98 99 102 104 107 108 109 110 111 113 114 115 116 117 118 120 123 125 127 128 129 132 133 134 135 137 139 140 142 143 144 145 146 150 151 152 154 155 158 160 164 165 166 167 168 169 174 175 176 177 178 180 183 184 190 191 192 194 195 196 197 198 200
Vertex 57: 117 1 2 3 4 7 8 9 12 13 14 19 20 22 24 25 30 31 32 33 35 36 37 38 39 41 43 47 48 49 50 51 53 54 55 58 59 60 65 67 70 71 73 74 75 78 79 80 81 82 84 85 87 90 91 92 94 95 97 98 102 105 107 112 115 116 118 119 121 123 124 125 126 128 133 135 137 142 143 144 145 148 150 151 152 153 155 157 158 159 160 162 163 164 165 166 167 169 170 171 173 174 175 176 179 181 182 183 184 186 187 188 192 193 195 198 199 200
Vertex 58: 117 2 5 6 8 10 11 12 13 14 15 16 18 19 22 25 29 31 32 33 34 35 36 37 40 41 44 46 47 51 52 53 55 56 57 59 63 64 65 68 69 76 77 78 81 82 83 85 87 88 89 90 92 93 95 97 98 99 101 102 103 104 106 107 109 111 112 113 116 117 118 121 122 123 124 125 126 128 130 131 133 134 135 136 137 138 142 143 145 148 149 152 153 155 156 157 164 165 168 169 170 172 174 175 176 178 179 181 183 185 186 187 188 193 195 198 199 200
Vertex 59: 112 4 5 8 10 12 16 18 21 22 24 25 26 28 29 30 31 32 33 34 36 37 38 39 40 42 43 45 47 48 49 51 52 53 54 55 56 57 58 62 66 67 69 72 73 74 75 81 82 83 84 87 90 92 93 94 95 96 97 100 102 103 104 105 108 109 110 111 114 115 117 119 120 122 125 126 127 128 130 131 132 136 137 138 139 140 141 142 147 148 149 151 152 153 155 156 157 160 162 163 166 170 173 178 179 184 186 188 194 195 197 199 200
Vertex 60: 125 3 4 5 6 9 10 11 12 13 14 16 20 21 22 23 24 27 28 29 31 33 35 36 37 38 39 40 42 43 44 45 46 47 48 49 50 51 52 53 55 57 61 62 63 65 67 69 70 71 73 74 76 77 79 80 82 84 85 87 94 96 97 98 99 101 102 103 104 105 106 107 108 109 112 114 115 116 117 118 121 124 126 127 129 130 131 133 134 138 139 140 141 143 144 147 148 150 151 152 154 157 159 164 166 167 172 173 174 175 177 179 181 182 183 184 186 188 191 192 193 194 195 197 199 200
Vertex 61: 127 1 2 5 9 10 11 12 20 21 22 23 24 25 26 27 28 29 30 32 33 36 39 40 41 44 48 49 50 51 53 60 63 64 65 66 67 68 69 70 71 73 74 75 76 77 78 80 82 85 86 87 89 91 92 95 96 98 99 101 103 105 106 108 109 110 111 112 113 114 118 119 121 122 123 124 126 129 132 133 135 137 138 139 141 142 143 144 146 147 148 149 150 151 152 153 155 156 157 159 160 161 163 164 165 166 168 169 170 173 179 180 181 184 185 186 187 188 189 190 193 194 195 196 197 198 199 200
Vertex 62: 113 1 2 3 4 5 6 9 10 15 17 19 21 22 23 24 25 26 27 29 33 34 35 36 38 39 41 42 47 49 51 52 53 55 56 59 60 66 67 69 70 71 72 77 78 80 83 85 87 88 89 91 96 98 99 100 102 104 105 107 108 109 112 114 115 116 118 119 123 125 127 128 129 130 131 132 133 135 139 140 141 142 143 145 147 149 152 153 154 156 158 160 161 163 165 168 169 170 171 172 173 174 175 176 179 180 181 182 183 185 189 194 196 199
Vertex 63: 115 1 3 5 6 8 9 13 14 15 17 19 20 22 24 25 26 28 29 31 34 35 36 37 39 41 42 45 46 47 48 49 50 51 52 54 58 60 61 66 68 69 70 72 73 76 77 78 81 83 84 85 86 88 90 93 94 95 96 97 98 102 104 107 109 111 112 113 115 116 117 119 121 125 127 129 131 132 135 137 139 140 142 144 148 149 150 151 152 154 155 156 157 158 159 161 162 164 165 167 168 170 172 173 175 176 180 181 182 184 186 189 192 193 197 199
Vertex 64: 124 1 2 3 4 5 6 9 10 11 12 14 15 18 19 20 21 23 24 25 26 28 29 30 33 34 36 38 41 42 44 45 47 48 49 50 51 52 54 55 56 58 61 65 66 67 69 70 74 75 77 78 79 80 82 84 86 88 89 91 95 97 99 101 102 103 104 105 107 108 114 117 120 121 124 127 130 132 133 134 136 137 138 139 141 142 144 147 148 149 150 152 154 155 156 157 158 159 161 162 163 164 165 166 167 168 169 170 171 175 178 182 184 185 188 189 190 191 192 193 194 195 197 198 200
Vertex 65: 123 1 2 3 6 7 8 9 10 11 14 17 18 21 23 25 26 27 28 30 33 34 38 40 41 42 43 44 48 49 50 51 53 55 56 57 58 60 61 64 67 69 71 73 74 75 77 79 80 81 82 84 85 86 87 90 95 96 97 98 99 102 104 106 107 108 109 110 111 112 113 114 115 116 118 119 120 124 129 130 134 137 138 139 140 141 142 145 146 147 148 151 152 153 154 155 156 157 158 162 165 167 168 169 170 171 172 173 174 176 178 179 180 183 184 185 186 190 191 192 195 196 198 200
Vertex 66: 120 1 2 5 6 7 9 10 11 12 16 17 18 21 22 23 24 26 28 31 32 35 39 41 42 43 48 51 53 59 61 62 63 64 67 68 71 74 76 77 79 80 81 83 85 88 91 92 93 97 99 101 102 103 104 105 107 108 109 112 114 115 117 118 119 120 121 122 123 125 126 128 129 131 132 133 135 136 139 140 141 142 148 150 151 152 153 154 157 158 159 161 162 163 164 165 166 167 168 169 171 175 179 180 181 182 184 185 186 188 189 190 191 192 193 194 195 196 198 199 200
Vertex 67: 125 2 4 5 6 7 9 10 12 13 14 15 19 24 26 27 28 29 30 31 35 38 39 40 42 43 44 45 47 48 49 50 51 53 55 57 59 60 61 62 64 65 66 68 70 71 72 73 74 75 76 79 80 81 82 83 85 87 89 90 93 94 95 98 101 102 103 105 106 107 108 109 111 113 114 116 118 119 123 124 126 127 130 131 132 134 135 139 140 143 144 145 148 149 150 151 152 153 157 159 160 162 163 164 165 166 169 170 172 175 177 178 180 181 183 184 185 189 190 191 192 193 194 198 199 200
Vertex 68: 114 1 3 4 5 6 7 8 10 12 13 14 15 16 17 21 22 24 26 27 31 33 34 36 37 38 40 42 43 50 51 52 53 56 58 61 63 66 67 69 71 74 76 79 80 81 82 83 84 85 86 87 88 89 90 91 94 95 98 100 101 104 105 106 111 113 114 116 117 121 123 126 127 128 130 131 134 135 136 138 139 142 143 145 148 150 151 152 153 154 161 162 167 171 172 174 175 177 178 179 180 182 183 184 185 187 188 189 190 191 192 193 195 198 199
Vertex 69: 125 1 3 4 5 7 11 12 15 19 20 21 22 23 24 26 29 30 32 33 34 36 37 38 40 41 42 43 44 47 48 49 50 58 59 60 61 62 63 64 65 68 71 73 75 77 78 79 80 81 82 83 84 85 86 89 90 91 92 93 94 95 96 100 101 102 103 105 106 109 110 111 112 113 114 115 117 118 121 122 124 126 127 128 129 130 131 132 133 135 136 138 139 140 141 142 143 144 145 147 150 152 156 157 159 160 162 167 168 169 171 174 179 181 182 183 184 186 189 190 192 193 194 195 196 199
Vertex 70: 127 1 2 3 4 6 7 9 10 12 15 16 17 23 24 25 27 28 31 32 33 35 36 38 39 40 41 42 43 44 45 46 49 50 51 52 53 54 55 57 60 61 62 63 64 67 71 73 74 75 76 77 78 79 80 81 82 83 86 87 88 89 92 95 96 97 98 101 102 103 105 109 110 111 112 113 116 117 118 119 122 123 124 125 128 130 134 136 137 140 141 142 145 146 147 149 153 154 155 156 157 158 159 160 161 163 164 166 167 168 172 173 174 175 176 177 179 180 183 187 188 191 192 194 195 196 197 200
Vertex 71: 123 1 2 3 6 9 10 11 12 13 14 15 17 18 19 22 25 26 28 31 32 34 35 37 39 42 45 46 48 49 50 51 55 57 60 61 62 65 66 67 68 69 70 73 74 75 76 77 78 79 80 81 82 84 86 87 88 90 94 95 96 97 100 101 105 107 110 112 114 116 118 120 121 122 123 124 126 128 129 130 131 132 133 134 136 137 139 140 141 144 145 147 150 152 153 154 155 157 158 159 160 161 169 170 171 175 176 178 179 180 181 182 183 184 187 188 189 190 191 192 193 194 197 198
Vertex 72: 108 3 4 5 7 8 9 10 11 13 14 16 21 23 24 25 28 31 32 35 36 38 40 43 45 46 47 48 49 50 51 53 55 59 62 63 67 73 74 75 76 77 78 83 84 86 94 95 97 103 104 105 106 107 108 109 111 112 113 114 115 119 120 121 123 124 125 129 130 132 134 136 137 138 141 145 147 148 151 152 154 155 157 158 161 162 163 165 166 167 168 169 170 175 176 177 179 181 182 184 185 188 192 193 195 196 198 199 200
Vertex 73: 121 1 3 4 5 7 10 11 14 16 17 18 20 21 23 24 26 28 29 30 37 38 39 40 41 42 44 47 48 49 51 53 54 55 56 57 59 60 61 63 65 67 69 70 71 72 75 76 77 78 79 81 82 83 84 85 86 88 89 90 92 93 94 95 97 98 100 101 102 103 104 105 106 107 108 111 114 115 118 122 125 126 127 129 130 131 133 134 135 137 138 139 141 143 144 145 148 150 153 154 156 157 159 160 162 163 168 169 170 171 173 174 175 178 181 183 185 189 193 195 196 200
Vertex 74: 116 1 2 3 5 10 11 13 14 15 17 19 20 22 23 24 25 30 32 33 34 38 39 40 42 43 44 45 46 47 48 49 50 52 54 55 56 57 59 60 61 64 65 66 67 68 70 71 72 75 76 79 80 83 85 86 88 92 94 95 97 99 100 101 102 106 107 109 111 112 113 114 115 119 121 122 125 127 128 129 130 131 132 133 135 138 143 145 146 147 152 153 154 155 157 162 163 164 166 170 175 178 179 181 182 184 185 186 188 190 191 193 195 196 197 198 200
Vertex 75: 116 1 4 6 7 9 10 12 18 19 21 24 26 27 28 31 33 34 35 40 45 47 48 50 52 54 57 59 61 64 65 67 69 70 71 72 73 74 76 77 80 81 82 83 85 86 87 88 89 91 92 93 94 95 97 98 99 100 101 103 104 105 106 107 109 110 112 115 117 118 120 122 124 126 127 129 130 132 134 135 138 139 140 141 142 145 147 149 150 152 154 155 156 159 161 163 164 165 166 170 171 173 175 177 179 182 184 185 187 188 190 193 194 195 196 198 199
Vertex 76: 126 3 4 7 8 9 14 18 19 21 22 24 25 26 28 29 30 31 33 34 35 36 37 39 40 41 44 46 47 49 50 55 58 60 61 63 66 67 68 70 71 72 73 74 75 77 78 79 80 81 82 83 87 88 90 93 94 95 96 100 102 103 104 105 106 107 108 109 110 112 113 114 116 117 119 120 122 123 124 127 129 133 134 135 137 138 139 143 144 145 146 147 148 149 151 153 155 158 159 160 161 162 163 164 168 169 170 172 173 175 176 179 180 181 182 184 187 188 189 190 191 193 195 196 197 199 200
Vertex 77: 123 3 5 7 9 10 11 13 15 17 20 21 22 25 27 28 29 30 32 33 34 35 36 41 43 44 45 49 50 51 52 53 55 56 58 60 61 62 63 64 65 66 69 70 71 72 73 75 76 79 80 85 86 89 90 91 92 93 95 97 98 99 100 102 104 106 108 109 112 113 115 116 117 118 119 120 121 123 124 125 127 128 129 131 132 137 138 139 140 141 142 144 145 148 149 152 153 154 155 157 159 160 161 162 167 171 173 175 177 179 180 181 185 186 187 188 190 193 194 195 196 198 199 200
Vertex 78: 120 4 5 6 9 10 11 14 17 20 22 23 25 26 27 28 29 30 31 34 35 36 37 39 40 42 43 44 47 49 50 51 55 57 58 61 62 63 64 69 70 71 72 73 76 80 81 82 83 87 88 90 91 93 94 95 96 98 99 100 101 103 104 106 109 110 112 114 116 117 118 120 121 123 124 125 126 127 128 130 132 133 135 137 139 140 141 142 144 145 148 150 151 152 154 155 157 158 160 163 166 168 169 170 172 175 176 177 178 179 181 183 186 189 191 192 194 195 196 197 200
Vertex 79: 122 1 2 3 7 9 12 13 14 15 16 17 18 21 22 23 24 25 27 28 29 30 31 33 34 35 37 38 40 42 43 44 46 47 49 51 52 55 57 60 64 65 66 67 68 69 70 71 73 74 76 77 80 82 86 88 90 94 99 101 102 103 104 105 106 107 108 109 110 113 115 116 117 118 120 121 122 123 124 126 127 128 130 131 134 136 137 139 141 143 144 145 146 147 148 153 154 155 157 159 161 162 163 164 165 166 167 168 169 173 174 175 176 177 178 179 182 184 185 186 189 193 198
Vertex 80: 126 1 3 5 8 9 10 12 13 14 16 17 18 20 21 22 23 27 28 29 35 36 38 40 41 42 43 44 45 46 48 50 52 55 56 57 60 61 62 64 65 66 67 68 69 70 71 74 75 76 77 78 79 83 84 88 90 93 94 95 96 97 99 100 101 102 103 104 105 108 109 110 111 112 113 116 118 119 121 122 124 126 127 128 129 130 133 134 135 138 139 141 142 143 144 147 149 150 153 154 157 158 160 161 164 166 168 169 173 174 180 181 182 184 185 186 187 188 189 190 192 193 194 195 197 199 200
Vertex 81: 122 1 3 5 6 8 9 10 11 12 13 14 18 19 20 22 23 25 27 30 33 34 35 37 38 39 40 41 43 44 45 46 47 48 55 57 58 59 63 65 66 67 68 69 70 71 73 75 76 78 84 85 86 87 88 89 93 94 97 98 99 100 102 103 104 106 107 108 109 111 116 119 120 121 122 123 125 127 130 133 135 136 139 141 143 144 146 147 148 152 153 154 155 157 159 160 162 163 164 165 166 167 169 170 171 172 174 175 176 179 180 183 184 185 186 188 189 190 191 194 195 197 198
Vertex 82: 126 4 7 10 11 12 13 15 16 17 18 19 21 22 23 24 28 32 34 35 36 38 41 43 45 48 49 51 53 54 55 57 58 59 60 61 64 65 67 68 69 70 71 73 75 76 78 79 84 85 86 90 91 93 95 97 98 99 103 104 105 106 107 109 110 111 112 113 114 117 119 120 121 124 125 126 128 129 131 132 133 134 139 142 144 145 146 148 149 150 151 153 154 155 156 159 161 162 163 164 165 166 169 170 171 172 173 174 175 178 181 182 183 184 185 186 187 188 189 190 191 192 193 195 196 198 199
Vertex 83: 123 1 3 4 5 6 7 11 13 15 16 18 20 21 25 26 27 29 30 32 33 34 35 36 37 39 40 44 49 50 51 52 54 55 58 59 62 63 66 67 68 69 70 72 73 74 75 76 78 80 87 88 89 90 91 92 93 94 96 98 99 101 106 107 108 111 115 117 118 119 120 121 122 123 124 125 126 128 129 130 131 133 134 135 137 143 144 145 147 150 152 154 155 158 159 162 164 166 167 168 169 170 172 173 174 175 176 178 181 183 184 185 186 187 188 189 190 191 193 194 195 196 197 198
Vertex 84: 120 2 4 5 9 11 15 17 18 19 20 21 23 24 28 29 31 32 34 35 37 38 39 40 42 44 45 48 51 52 53 54 55 56 57 59 60 63 64 65 68 69 71 72 73 80 81 82 85 86 88 89 92 93 95 96 97 98 100 103 104 105 106 107 108 109 110 112 116 117 118 119 120 122 123 125 127 131 132 133 135 136 137 139 141 142 144 146 148 149 153 154 155 157 158 159 160 161 162 163 165 166 167 170 171 172 173 174 176 178 179 180 181 183 189 190 191 194 195 197 199
Vertex 85: 135 1 2 5 6 7 9 11 12 13 14 16 17 19 21 22 23 24 26 28 30 31 32 33 34 36 37 40 42 43 45 46 47 48 50 52 53 54 56 57 58 60 61 62 63 65 66 67 68 69 73 74 75 77 81 82 84 86 89 91 92 93 94 95 96 100 101 103 105 106 107 108 109 112 113 116 117 118 119 121 122 123 124 126 127 128 129 130 131 134 135 136 137 138 140 141 142 144 145 148 149 150 151 152 154 156 157 158 160 161 162 163 164 166 167 169 170 171 173 174 175 176 177 180 181 183 187 188 189 190 191 192 194 195 196 197
Vertex 86: 120 1 2 3 4 5 6 7 9 10 11 12 13 17 18 19 20 21 24 26 29 31 34 35 36 37 39 40 41 42 43 44 45 46 47 48 49 50 51 52 53 54 56 61 63 64 65 68 69 70 71 72 73 74 75 77 79 81 82 84 85 88 92 93 94 95 96 97 98 100 102 105 106 107 108 109 110 111 112 113 115 116 120 121 125 128 130 131 132 138 139 142 145 146 147 149 150 152 154 155 159 162 163 164 166 167 168 170 174 176 179 180 184 186 187 188 191 193 195 196 200
Vertex 87: 117 1 2 3 4 5 6 7 9 10 13 15 17 18 19 20 22 23 24 26 31 32 33 34 35 36 37 39 42 44 49 50 51 52 54 55 56 57 58 59 60 61 62 65 67 68 70 71 75 76 78 81 83 88 89 91 92 93 96 99 100 101 103 106 107 109 110 113 115 117 118 119 120 122 125 126 132 133 134 135 136 137 140 142 144 146 148 149 152 153 154 155 159 160 161 162 166 167 170 172 173 174 175 176 181 182 184 187 189 190 191 192 193 195 196 197 199 200
Vertex 88: 126 3 6 8 9 10 11 12 14 15 16 17 20 22 23 25 26 28 29 32 33 35 36 37 38 39 40 43 44 46 47 48 49 53 56 58 62 63 64 66 68 70 71 73 74 75 76 78 79 80 81 83 84 86 87 89 90 91 92 93 95 97 99 102 103 105 106 108 109 113 114 115 118 120 121 122 125 126 127 128 130 132 134 136 137 142 143 144 145 147 148 150 151 152 154 155 158 159 160 162 163 164 168 169 171 173 177 178 179 180 181 182 183 184 185 186 187 188 190 191 192 193 195 196 198 199 200
Vertex 89: 118 5 6 9 10 12 14 15 16 17 18 19 20 22 24 26 28 29 31 32 33 37 38 39 41 42 44 48 51 53 54 55 56 58 61 62 64 67 68 69 70 73 75 77 81 83 84 85 87 88 90 92 93 94 97 98 99 100 102 103 104 105 106 109 113 114 116 118 119 121 122 123 124 125 127 129 131 133 135 136 137 138 140 141 142 143 146 149 150 151 152 154 155 156 159 160 161 163 166 167 171 172 174 176 178 179 180 181 182 184 186 187 188 189 190 191 193 195 197
Vertex 90: 111 1 3 4 6 8 14 16 17 18 21 22 23 24 25 26 27 28 31 32 33 35 38 39 42 43 45 46 47 48 54 55 56 57 58 59 63 65 67 68 69 71 73 76 77 78 79 80 82 83 88 89 91 92 96 99 104 105 106 107 109 110 111 113 114 116 124 126 129 130 133 135 136 137 139 140 143 144 147 149 154 155 156 157 158 159 160 162 163 164 166 168 169 170 171 173 175 176 179 182 184 185 186 187 188 189 190 191 192 196 198 199
Vertex 91: 120 1 2 3 6 7 8 9 10 12 13 16 17 18 19 20 22 25 27 28 31 35 36 37 41 44 45 47 49 50 51 52 54 55 56 57 61 62 64 66 68 69 75 77 78 82 83 85 87 88 90 92 95 96 97 98 99 100 101 103 104 105 107 109 112 113 114 115 116 119 120 121 122 124 127 128 129 130 132 133 134 135 138 141 143 144 146 147 148 153 154 155 156 161 162 163 164 167 168 171 172 173 174 175 176 177 178 179 180 181 182 183 184 186 188 190 191 194 195 196 198
Vertex 92: 114 2 3 5 6 8 9 12 14 15 17 19 20 22 23 25 26 27 28 29 32 34 39 41 42 43 45 46 47 49 52 53 57 58 59 61 66 69 70 73 74 75 77 83 84 85 86 87 88 89 90 91 93 95 96 100 101 102 104 105 106 107 109 110 112 115 116 117 118 123 126 128 130 131 132 133 136 137 139 140 141 144 146 147 148 150 151 153 154 155 158 159 161 164 165 166 167 168 169 171 172 173 174 176 177 180 181 182 186 188 193 194 198 199 200
Vertex 93: 112 3 4 9 12 14 16 17 18 19 21 22 24 26 27 28 31 32 33 37 41 46 47 48 50 51 53 55 58 59 63 66 67 69 73 75 76 77 78 80 81 82 83 84 85 86 87 88 89 92 98 99 101 102 104 105 108 109 110 111 116 120 121 122 123 125 126 129 131 132 133 135 136 138 139 140 141 143 144 145 149 154 158 159 160 161 162 165 166 167 168 169 171 172 173 174 175 178 179 180 181 182 183 184 185 186 189 191 193 194 197 198 199
Vertex 94: 118 2 3 4 6 7 9 10 11 12 13 15 16 18 21 22 25 27 38 41 42 43 44 46 47 49 51 52 53 56 57 59 60 63 67 68 69 71 72 73 74 75 76 78 79 80 81 83 85 86 89 97 100 101 102 104 106 109 111 112 113 114 115 120 123 124 125 128 130 131 132 134 135 136 137 138 139 140 142 146 147 148 150 151 152 153 154 156 158 159 163 165 166 167 168 169 170 171 172 173 174 176 177 178 179 180 181 182 183 186 189 191 192 193 194 195 196 198 199
Vertex 95: 118 2 3 6 7 8 9 10 12 16 19 20 24 25 27 30 31 33 34 40 42 44 45 46 47 48 50 52 55 56 57 58 59 61 63 64 65 67 68 69 70 71 72 73 74 75 76 77 78 80 82 84 85 86 88 91 92 96 97 99 102 103 104 106 108 111 112 114 115 116 117 118 120 122 123 124 128 131 132 133 134 135 137 139 142 143 149 150 154 156 157 158 159 160 162 165 166 167 168 169 171 172 174 175 176 178 179 180 181 182 183 184 187 192 193 195 198 199 200
Vertex 96: 118 2 4 5 7 8 10 11 12 13 14 16 18 20 22 23 24 28 29 30 33 34 36 37 38 39 40 41 43 44 45 50 52 55 59 60 61 62 63 65 69 70 71 76 78 80 83 84 85 86 87 90 91 92 95 97 98 99 103 104 106 108 110 111 112 113 117 118 119 122 123 124 125 126 128 130 133 135 136 137 138 139 140 142 143 144 148 150 154 155 157 158 159 161 162 165 167 170 174 175 176 177 178 179 181 183 184 185 186 187 188 189 191 192 193 195 196 199 200
Vertex 97: 130 1 2 5 6 8 10 11 12 13 14 16 17 18 19 20 21 24 25 28 30 31 36 37 38 39 40 41 42 44 45 46 48 51 52 54 55 57 58 59 60 63 64 65 66 70 71 72 73 74 75 77 80 81 82 84 86 88 89 91 94 95 96 101 102 104 105 106 107 109 110 113 114 116 117 118 119 120 123 124 125 126 128 129 131 132 136 137 138 141 142 144 145 147 149 150 151 153 154 156 157 159 160 161 164 165 167 168 169 170 171 174 175 176 177 178 180 181 183 184 185 186 187 189 190 191 192 194 195 196 200
Vertex 98: 113 1 2 4 5 6 7 8 9 11 12 14 15 16 23 25 26 27 29 30 31 32 33 34 35 36 40 41 42 44 45 46 47 48 51 54 56 57 58 60 61 62 63 65 67 68 70 73 75 77 78 81 82 83 84 86 89 91 93 96 99 100 103 104 105 107 108 111 112 114 115 117 119 120 121 122 126 129 130 131 132 136 138 144 149 150 154 155 156 157 159 160 162 163 166 169 172 173 175 176 179 181 182 183 184 186 188 189 191 192 195 196 197 200
Vertex 99: 137 1 2 5 6 7 8 9 10 12 13 14 15 17 18 19 20 21 22 23 24 25 26 27 28 29 30 31 32 33 35 36 38 39 40 41 43 44 45 46 48 49 50 52 56 58 60 61 62 64 65 66 74 75 77 78 79 80 81 82 83 87 88 89 90 91 93 95 96 98 100 101 103 104 105 106 107 108 109 110 116 117 118 119 120 122 123 124 125 126 131 132 133 134 135 136 138 139 142 143 144 145 146 147 150 151 152 157 159 161 162 163 165 167 168 169 170 171 172 173 176 177 179 181 182 185 186 187 189 190 192 193 194 195 196 198 199 200
Vertex 100: 118 1 3 4 5 8 10 14 18 19 20 21 23 24 25 28 29 30 31 32 33 34 35 37 38 41 42 43 44 45 47 48 49 51 52 54 59 62 68 69 71 73 74 75 76 77 78 80 81 84 85 86 87 89 91 92 94 98 99 103 104 105 107 109 110 112 113 114 116 117 118 119 120 122 123 124 126 127 130 133 134 135 136 139 140 142 143 145 146 148 149 151 153 156 158 160 162 164 165 166 167 168 169 172 175 177 179 181 185 186 187 188 189 193 194 195 197 198 199
Vertex 101: 117 2 3 4 5 7 10 11 12 13 15 16 20 21 22 23 24 25 28 31 34 35 38 39 41 42 43 44 45 46 47 50 52 54 55 58 60 61 64 66 67 68 69 70 71 73 74 75 78 79 80 83 85 87 91 92 93 94 97 99 102 104 109 110 111 113 114 116 117 120 121 124 126 127 128 129 130 131 132 133 134 136 137 138 142 143 144 145 146 151 152 153 155 157 159 162 163 166 167 168 169 170 172 173 174 175 177 179 182 185 186 187 190 195 196 197 199 200
Vertex 102: 124 1 3 5 7 8 9 10 11 12 14 15 16 17 18 22 25 27 28 29 30 31 32 33 34 39 40 43 46 47 49 50 51 53 54 56 57 58 59 60 62 63 64 65 66 67 69 70 73 74 76 77 79 80 81 86 88 89 92 93 94 95 97 101 110 111 112 113 114 116 118 120 121 123 124 125 126 129 130 131 132 134 135 136 137 140 141 142 143 144 145 147 148 149 150 152 153 154 155 157 158 159 160 164 166 167 168 173 175 176 177 180 181 182 183 184 185 186 187 192 193 195 196 199 200
Vertex 103: 128 5 6 7 9 10 11 12 14 15 16 17 18 20 25 26 27 29 30 31 32 33 35 37 38 42 43 44 46 47 48 50 51 52 53 54 58 59 60 61 64 66 67 69 70 72 73 75 76 78 79 80 81 82 84 85 87 88 89 91 95 96 98 99 100 105 108 109 110 111 114 115 116 118 124 125 126 127 128 129 130 131 132 133 134 138 139 142 143 144 145 147 149 151 152 154 156 157 158 159 160 162 164 165 166 167 168 169 171 172 174 175 177 179 180 181 182 183 186 187 190 191 192 193 194 196 197 199 200
Vertex 104: 124 2 5 6 7 10 11 12 13 14 16 17 18 20 23 24 25 26 29 30 33 34 38 39 40 41 44 45 46 50 52 54 56 58 59 60 62 63 64 65 66 68 72 73 75 76 77 78 79 80 81 82 84 89 90 91 92 93 94 95 96 97 98 99 100 101 106 107 108 110 115 116 118 119 120 121 122 124 125 126 127 131 133 134 137 139 140 142 144 145 147 150 151 152 153 154 155 157 158 159 160 161 165 166 169 170 171 172 173 174 175 176 177 178 180 181 185 186 188 189 192 194 195 196 200
Vertex 105: 128 3 4 6 7 8 9 11 12 13 14 15 16 17 21 22 23 24 28 30 31 32 33 35 36 37 42 43 44 47 48 49 51 55 57 59 60 61 62 64 66 67 68 69 70 71 72 73 75 76 79 80 82 84 85 86 88 89 90 91 92 93 97 98 99 100 103 106 107 108 109 110 111 113 114 115 116 117 118 119 120 122 126 128 129 130 131 132 133 138 139 141 142 143 147 148 150 151 153 155 157 158 159 160 162 165 166 168 169 171 173 174 177 178 180 181 183 184 185 186 188 189 190 192 193 194 196 198 200
Vertex 106: 128 1 3 4 5 6 7 8 9 12 13 14 15 18 19 23 27 28 30 31 32 33 36 37 38 39 42 45 46 47 48 52 53 54 55 58 60 61 65 67 68 69 72 73 74 75 76 77 78 79 81 82 83 84 85 86 87 88 89 90 92 94 95 96 97 99 104 105 107 108 109 112 113 115 117 120 121 124 125 127 128 129 130 131 132 133 134 138 140 141 142 144 146 148 151 152 154 155 157 158 159 160 162 163 165 168 170 171 174 175 176 178 180 181 182 184 185 186 187 188 189 192 193 194 195 196 197 199 200
Vertex 107: 120 1 2 4 5 6 8 11 12 13 14 16 18 19 20 21 22 24 25 26 27 31 32 34 36 37 39 40 41 42 44 48 50 51 52 55 56 57 58 60 62 63 64 65 66 67 71 72 73 74 75 76 79 81 82 83 84 85 86 87 90 91 92 97 98 99 100 104 105 106 108 111 115 116 119 120 121 122 123 124 125 126 128 135 136 138 139 140 142 144 145 146 147 148 149 150 151 153 154 158 160 161 162 163 164 168 173 175 177 180 181 182 183 184 185 186 187 190 196 197 199
Vertex 108: 122 2 3 4 6 10 11 13 15 16 17 18 19 20 24 26 27 28 29 30 31 33 35 36 37 39 40 41 42 43 44 46 48 50 52 53 54 55 56 59 60 61 62 64 65 66 67 72 73 76 77 79 80 81 83 84 85 86 88 93 95 96 98 99 103 104 105 106 107 111 112 113 115 118 120 122 124 125 128 130 131 132 133 134 135 136 138 140 143 144 146 147 148 150 151 152 153 154 155 157 158 159 163 165 166 169 172 173 175 176 177 178 179 180 181 182 183 184 186 187 192 194 197
Vertex 109: 139 1 2 3 5 7 9 10 12 15 16 17 18 19 20 21 23 24 26 27 28 31 32 33 34 35 36 37 39 41 43 45 47 48 49 50 52 55 56 58 59 60 61 62 63 65 66 67 69 70 72 74 75 76 77 78 79 80 81 82 84 85 86 87 88 89 90 91 92 93 94 97 99 100 101 103 105 106 110 111 114 115 116 117 119 120 122 123 124 125 126 129 132 134 136 137 139 141 143 144 146 147 148 149 150 153 155 157 158 161 162 163 164 165 166 169 170 174 175 176 177 179 180 181 183 184 185 186 187 188 189 190 191 193 194 195 196 198 199 200
Vertex 110: 109 1 2 6 7 9 10 12 14 15 16 17 22 23 25 26 27 28 30 31 33 36 39 41 43 45 46 48 49 50 51 52 55 56 59 61 65 69 70 71 75 76 78 79 80 82 84 86 87 90 92 93 96 97 99 100 101 102 103 104 105 109 112 113 116 117 118 119 121 122 124 125 126 129 130 131 132 133 135 137 139 140 142 144 145 147 148 149 153 157 158 162 164 166 168 170 173 174 175 177 180 184 185 186 188 191 196 197 199 200
Vertex 111: 109 2 3 5 8 10 11 12 14 17 19 20 21 22 24 25 26 27 29 30 31 32 34 36 37 38 39 40 41 43 44 45 50 52 53 54 55 56 58 59 61 63 65 67 68 69 70 72 73 74 80 81 82 83 86 90 93 94 95 96 98 101 102 103 105 107 108 109 112 115 120 121 122 123 125 127 132 135 136 138 140 142 144 147 148 151 152 153 155 156 158 159 160 161 162 170 172 176 178 179 183 184 185 186 187 191 194 195 199 200
Vertex 112: 119 1 2 3 4 5 7 10 13 16 17 18 19 21 22 24 26 27 28 33 34 35 38 39 40 41 43 45 46 47 49 50 57 58 60 61 62 63 65 66 69 70 71 72 74 75 76 77 78 80 82 84 85 86 91 92 94 95 96 98 100 102 106 108 110 111 114 116 117 118 119 122 123 127 128 129 131 132 133 135 136 138 139 140 141 143 144 147 148 150 153 155 157 160 162 163 164 167 168 169 170 175 176 177 178 180 181 182 183 185 186 187 189 190 191 192 193 194 197 199
Vertex 113: 112 2 3 6 7 8 10 11 12 13 14 16 17 18 21 23 25 29 30 31 32 33 35 36 37 40 43 44 48 49 50 53 56 58 61 63 65 67 68 69 70 72 74 76 77 79 80 82 85 86 87 88 89 90 91 94 96 97 100 101 102 105 106 108 110 114 115 120 121 122 123 124 125 128 129 130 131 133 134 136 137 138 139 140 142 143 145 146 149 155 156 157 158 159 164 169 170 171 173 174 175 179 180 184 186 189 190 192 194 195 196 199 200
Vertex 114: 115 1 2 3 5 7 9 10 12 16 17 18 19 20 23 26 29 31 32 34 38 39 40 41 42 43 45 46 48 54 55 56 59 60 61 62 64 65 66 67 68 69 71 72 73 74 76 78 82 88 89 90 91 94 95 97 98 100 101 102 103 105 109 112 113 116 118 119 120 121 122 125 126 128 129 130 131 132 134 138 139 140 142 143 144 147 149 151 154 155 158 159 160 161 162 163 167 169 170 172 173 174 176 177 178 179 182 183 188 193 195 196 197 198 199 200
Vertex 115: 118 1 3 4 5 6 8 10 11 12 15 17 18 20 21 23 25 26 28 30 31 33 34 37 38 39 41 44 46 47 48 49 51 53 56 57 59 60 62 63 65 66 69 72 73 74 75 77 79 83 86 87 88 91 92 94 95 98 103 104 105 106 107 108 109 111 113 116 117 118 119 121 122 123 124 125 127 128 129 131 132 133 134 135 136 137 141 145 149 152 153 155 156 158 159 162 163 164 165 167 168 170 171 173 174 177 178 183 185 189 190 192 193 195 196 197 198 199 200
Vertex 116: 121 1 4 6 7 9 10 11 14 16 17 18 19 20 23 24 26 27 30 31 32 33 36 37 38 40 42 43 45 48 49 52 53 54 56 57 58 60 62 63 65 67 68 70 71 76 77 78 79 80 81 84 85 86 89 90 91 92 93 95 97 99 100 101 102 103 104 105 107 109 110 112 114 115 119 121 122 125 126 128 129 131 132 133 135 136 139 140 141 142 143 144 145 148 149 151 152 154 156 158 161 163 164 165 169 170 172 174 175 177 178 184 185 186 187 188 191 192 193 195 198 199
Vertex 117: 113 2 3 4 5 6 9 11 12 14 16 18 19 20 23 25 27 28 29 32 33 35 36 37 38 39 40 44 46 47 49 50 52 55 56 58 59 60 63 64 66 68 69 70 75 76 77 78 79 82 83 84 85 87 92 95 96 97 98 99 100 101 105 106 109 110 112 115 119 121 122 123 124 125 131 132 138 139 140 141 144 145 146 147 149 151 152 153 158 161 162 163 165 166 168 169 172 174 177 179 180 181 182 184 185 186 188 189 191 193 194 195 197 199
Vertex 118: 122 1 2 3 4 5 8 9 10 11 12 15 16 18 20 21 22 23 24 26 27 28 29 30 32 33 34 35 37 38 39 40 41 44 46 48 49 51 52 53 56 57 58 60 61 62 65 66 67 69 70 71 73 75 77 78 79 80 83 84 85 87 88 89 92 95 96 97 99 100 102 103 104 105 108 110 112 114 115 120 122 123 126 127 129 132 134 140 142 143 145 146 147 150 153 155 157 158 159 161 162 165 167 169 170 171 173 174 176 182 184 185 186 187 188 189 190 193 194 196 198 199 200
Vertex 119: 118 1 5 7 8 10 14 16 18 20 21 22 25 26 27 29 32 33 37 38 39 41 43 44 45 46 47 48 50 51 53 54 55 57 59 61 62 63 65 66 67 70 72 74 76 77 80 81 82 83 84 85 87 89 91 96 97 98 99 100 104 105 107 109 110 112 114 115 116 117 120 121 125 129 130 132 133 134 135 137 138 139 140 141 143 145 147 148 149 152 154 156 159 160 161 163 165 166 167 170 171 173 175 176 177 179 181 183 184 186 190 191 193 194 195 196 197 198 200
Vertex 120: 118 4 5 6 7 9 11 12 13 14 15 16 18 19 20 21 22 24 25 26 27 31 34 35 36 37 38 40 41 42 44 45 46 48 50 54 55 56 59 64 65 66 71 72 75 76 77 78 79 81 82 83 84 86 87 88 91 93 94 95 97 98 99 100 101 102 104 105 106 107 108 109 111 113 114 118 119 122 123 125 126 129 130 131 132 133 134 137 138 139 141 144 145 148 149 151 154 157 160 161 162 164 167 168 169 170 171 173 176 178 179 183 185 189 190 191 195 196 199
Vertex 121: 132 1 3 5 6 7 12 13 14 16 17 19 20 21 23 27 28 29 31 32 33 34 35 36 37 39 40 41 44 45 48 49 51 52 53 54 55 57 58 60 61 63 64 66 68 69 71 72 74 77 78 79 80 81 82 83 85 86 88 89 91 93 98 101 102 104 106 107 110 111 113 114 115 116 117 119 122 124 126 128 129 131 132 134 135 136 137 138 139 140 141 142 144 145 146 147 148 151 152 154 155 156 158 159 160 161 164 166 167 168 170 171 172 173 174 176 179 180 182 183 185 186 187 188 190 191 192 193 194 195 198 199 200
Vertex 122: 120 1 2 4 5 6 10 12 14 16 19 25 26 27 28 29 32 34 35 38 39 41 42 44 46 47 48 49 50 55 58 59 61 66 69 70 71 73 74 75 76 79 80 81 83 84 85 87 88 89 91 93 95 96 98 99 100 104 105 107 108 109 110 111 112 113 114 115 116 117 118 120 121 124 125 128 130 134 136 139 140 141 142 143 145 147 149 150 151 152 153 156 158 159 161 163 164 165 166 170 171 174 175 177 178 179 180 183 184 185 186 187 188 189 191 192 193 194 195 196 198
Vertex 123: 127 1 2 3 4 7 8 11 14 15 16 17 18 20 21 22 25 26 28 29 31 32 33 34 37 38 39 40 42 44 45 47 49 50 52 53 54 55 56 57 58 61 62 66 67 68 70 71 72 76 77 78 79 81 83 84 85 89 92 93 94 95 96 97 99 100 102 107 109 111 112 113 115 117 118 120 124 125 127 131 132 133 135 136 137 138 139 140 142 143 145 146 147 150 151 152 153 154 155 156 159 162 163 165 167 168 169 170 171 175 176 178 179 180 181 182 183 186 187 188 189 191 193 195 197 198 199 200
Vertex 124: 128 2 5 7 8 9 10 11 12 13 14 15 16 22 24 25 26 27 29 30 31 32 35 36 37 38 39 43 44 45 46 47 48 52 53 55 57 58 60 61 64 65 67 69 70 71 72 75 76 77 78 79 80 82 83 85 89 90 91 94 95 96 97 99 100 101 102 103 104 106 107 108 109 110 113 115 117 121 122 123 125 126 128 129 130 131 133 137 140 141 142 144 145 147 148 149 151 153 154 156 158 159 161 163 166 167 170 172 174 175 177 178 179 180 181 182 183 184 186 188 189 190 191 192 194 195 196 198 200
Vertex 125: 129 1 2 3 5 6 8 9 11 12 15 16 17 21 22 24 25 26 27 28 29 30 31 35 36 37 38 39 40 41 42 44 49 50 52 53 54 55 56 57 58 59 62 63 66 70 72 73 74 77 78 81 82 83 84 86 87 88 89 93 94 96 97 99 102 103 104 106 107 108 109 110 111 113 114 115 116 117 119 120 122 123 124 128 130 131 132 134 137 141 143 144 145 149 150 151 153 155 156 158 159 160 161 162 163 164 169 171 172 174 175 176 177 178 179 180 181 182 183 186 187 188 189 190 193 194 197 198 199 200
Vertex 126: 128 1 2 4 5 7 8 9 10 13 14 17 18 20 22 23 24 26 27 28 29 30 32 33 34 36 37 38 40 42 43 44 45 49 51 52 53 54 55 57 58 59 60 61 66 67 68 69 71 73 75 78 79 80 82 83 85 87 88 90 92 93 96 97 98 99 100 101 102 103 104 105 107 109 110 114 116 118 120 121 124 129 130 132 133 135 136 137 138 139 140 141 142 143 144 146 147 148 151 153 154 155 157 158 159 161 164 165 166 168 169 171 174 175 176 177 179 180 181 182 183 186 190 192 194 195 197 198 199
Vertex 127: 106 1 4 5 7 8 10 11 12 13 15 17 18 22 25 27 28 31 32 34 36 37 38 39 47 48 49 51 52 53 55 56 59 60 62 63 64 67 68 69 73 74 75 76 77 78 79 80 81 84 85 88 89 91 100 101 103 104 106 111 112 115 118 123 130 131 132 133 135 137 138 140 142 145 147 148 150 151 153 155 156 157 158 159 160 162 165 170 171 172 173 174 176 177 178 179 180 183 185 188 189 190 193 194 197 199 200
Vertex 128: 127 1 2 5 6 7 9 10 12 14 16 17 18 19 20 21 22 24 27 28 29 31 32 33 35 37 39 41 42 44 45 46 48 49 50 52 53 54 56 57 58 59 62 66 68 69 70 71 74 77 78 79 80 82 83 85 86 88 91 92 94 95 96 97 101 103 105 106 107 108 112 113 114 115 116 121 122 124 125 129 131 134 135 136 137 139 140 141 142 144 145 147 148 151 154 156 157 160 162 163 164 166 169 170 172 173 174 175 176 177 178 179 181 182 184 185 186 188 189 190 191 192 195 196 197 198 199 200
Vertex 129: 106 2 3 7 8 9 10 12 13 15 16 19 20 22 23 24 30 31 33 35 36 37 38 41 42 43 47 49 50 51 52 53 54 56 60 61 62 63 65 66 69 71 72 73 74 75 76 77 80 82 83 85 89 90 91 93 97 98 101 102 103 105 106 109 110 112 113 114 115 116 118 119 120 121 124 126 128 134 136 137 138 139 140 144 147 148 151 153 154 158 159 160 162 164 168 169 180 181 183 184 185 188 192 195 196 199 200
Vertex 130: 127 2 3 4 6 7 8 11 13 14 15 21 22 23 25 26 27 29 32 34 36 37 38 39 40 41 43 44 46 48 50 51 52 53 55 58 59 60 62 64 65 67 68 69 70 71 72 73 74 75 78 79 80 81 83 85 86 88 90 91 92 94 96 98 100 101 102 103 105 106 108 110 113 114 119 120 122 124 125 126 127 133 134 135 136 138 139 140 142 143 144 145 146 148 149 152 153 154 157 158 160 161 162 163 164 165 167 168 170 174 178 179 181 182 184 185 186 188 189 190 191 192 193 194 195 197 199 200
Vertex 131: 127 1 3 4 5 6 7 8 9 10 11 12 13 14 15 17 18 20 22 23 24 25 26 30 31 32 35 38 40 42 44 47 48 49 50 51 52 54 55 58 59 60 62 63 66 67 68 69 71 73 74 77 79 82 83 84 85 86 89 92 93 94 95 97 98 99 101 102 103 104 105 106 108 110 112 113 114 115 116 117 120 121 123 124 125 127 128 132 135 136 137 140 142 143 144 145 146 148 152 155 156 157 158 159 161 165 166 167 168 169 170 172 173 174 176 178 181 182 185 186 187 189 190 191 192 193 195 196
Vertex 132: 130 1 3 4 6 8 9 10 12 13 15 16 17 19 20 21 22 23 25 27 28 29 30 31 32 33 36 38 40 41 43 44 46 47 48 49 50 52 53 55 56 59 61 62 63 64 66 67 69 71 72 74 75 77 78 82 84 86 87 88 91 92 93 94 95 97 98 99 101 102 103 105 106 108 109 110 111 112 114 115 116 117 118 119 120 121 123 125 126 127 131 133 134 135 139 141 142 143 144 145 146 147 150 151 152 154 157 161 162 163 164 165 166 167 169 170 176 180 182 184 185 186 188 189 190 193 194 195 196 198 199
Vertex 133: 122 1 2 3 4 5 8 9 10 12 15 16 18 19 20 22 24 25 27 28 30 32 35 36 37 38 39 41 42 43 44 46 48 49 50 52 54 56 57 58 60 61 62 64 66 69 71 73 74 76 78 80 81 82 83 84 87 89 90 91 92 93 95 96 99 100 101 103 104 105 106 108 110 112 113 115 116 119 120 123 124 126 127 130 132 134 135 136 137 138 140 142 143 145 146 148 150 151 153 156 157 160 163 164 170 172 173 174 175 177 180 181 182 184 185 187 188 190 191 194 195 198 199
Vertex 134: 124 1 2 3 4 6 7 8 9 12 13 14 15 16 17 18 19 20 21 22 25 27 29 31 32 33 35 37 38 40 41 42 43 44 48 52 54 56 58 60 64 65 67 68 70 71 72 73 75 76 79 80 82 83 85 87 88 91 94 95 99 100 101 102 103 104 106 108 109 113 114 115 118 119 120 121 122 125 128 129 130 132 133 135 136 137 141 142 145 146 147 151 152 153 157 158 159 160 161 164 165 166 167 169 171 172 174 175 176 177 178 180 182 184 186 188 189 191 193 194 196 197 198 199 200
Vertex 135: 127 1 2 3 4 5 6 7 8 10 11 12 13 14 15 16 17 18 19 21 22 23 24 25 27 28 29 30 32 34 36 37 39 41 42 44 47 48 51 52 53 54 55 56 57 58 61 62 63 66 67 68 69 73 74 75 76 78 80 81 83 84 85 87 89 90 91 93 94 95 96 99 100 102 107 108 110 111 112 115 116 119 121 123 126 127 128 130 131 132 133 134 136 137 141 143 146 147 149 150 153 154 155 156 157 158 159 160 163 165 166 170 172 173 174 175 177 183 184 187 188 189 190 191 193 195 196 197
Vertex 136: 123 1 2 3 4 8 9 10 12 13 14 15 19 20 21 22 30 31 32 34 36 37 38 39 40 42 45 47 48 49 50 51 52 54 55 58 59 64 66 68 69 70 71 72 79 81 84 85 87 88 89 90 92 93 94 96 97 98 99 100 101 102 107 108 109 111 112 113 115 116 121 122 123 126 128 129 130 131 133 134 135 137 139 140 141 143 144 145 148 149 150 153 154 156 157 158 159 162 163 166 167 168 169 171 174 175 176 177 178 179 182 184 185 187 188 189 190 191 192 194 195 197 199 200
Vertex 137: 117 1 2 3 4 6 8 10 13 15 16 17 18 19 20 21 22 23 25 28 30 33 34 39 41 43 44 45 46 48 50 52 54 55 56 57 58 59 61 63 64 65 70 71 72 73 76 77 78 79 83 84 85 87 88 89 90 92 94 95 96 97 101 102 104 109 110 113 115 119 120 121 123 124 125 126 127 128 129 131 133 134 135 136 138 139 140 141 144 145 146 150 153 154 155 157 158 160 162 163 168 170 172 173 175 177 179 180 184 185 186 189 190 193 195 197 199 200
Vertex 138: 120 7 8 10 12 13 14 15 16 17 20 21 22 23 27 28 29 30 33 34 35 36 37 38 39 41 42 43 44 45 48 49 50 51 52 53 54 58 59 60 61 64 65 68 69 72 73 74 75 76 77 80 85 86 89 91 93 94 96 97 98 99 101 103 105 106 107 108 111 112 113 114 117 119 120 121 123 126 127 129 130 133 137 140 142 143 144 145 147 148 149 150 152 153 155 157 162 163 164 166 167 168 171 173 174 175 177 179 182 183 185 186 188 189 190 192 193 196 197 198 200
Vertex 139: 131 1 3 5 6 9 10 11 12 13 15 16 18 19 20 21 23 24 26 28 31 32 33 34 37 38 40 44 46 47 48 49 50 51 52 53 54 56 59 60 61 62 63 64 65 66 67 68 69 71 73 75 76 77 78 79 80 81 82 84 86 90 92 93 94 95 96 99 100 103 104 105 107 109 110 112 113 114 116 117 119 120 121 122 123 126 128 129 130 132 136 137 140 141 142 143 144 145 148 149 150 153 154 157 159 161 163 164 165 167 169 170 171 172 173 176 178 179 180 181 183 184 185 186 187 190 191 193 196 197 199 200
Vertex 140: 121 1 6 7 8 9 11 13 14 15 17 18 20 22 24 25 26 31 34 36 37 38 40 43 44 45 47 49 50 52 53 54 56 59 60 62 63 65 66 67 69 70 71 75 77 78 85 87 89 90 92 93 94 96 100 102 104 106 107 108 110 111 112 113 114 116 117 118 119 121 122 123 124 126 127 128 129 130 131 133 136 137 138 139 141 142 143 145 147 148 150 152 157 158 160 161 163 164 166 167 168 169 170 171 176 178 179 181 182 184 185 186 187 189 190 191 192 193 195 196 197 200
Vertex 141: 108 1 7 8 9 10 12 15 16 17 18 19 24 27 28 32 35 36 37 39 40 43 44 45 46 48 49 50 52 53 55 59 60 61 62 64 65 66 69 70 71 72 73 75 77 78 79 80 81 84 85 89 91 92 93 97 102 105 106 109 112 115 116 117 119 120 121 122 124 125 126 128 132 134 135 136 137 139 140 143 144 145 147 150 151 152 157 158 159 160 163 164 165 166 167 170 171 172 173 180 181 184 185 189 190 193 195 196 200
Vertex 142: 125 1 2 4 5 6 8 9 14 15 16 17 20 25 29 31 33 35 36 37 38 39 40 41 42 43 44 46 47 49 50 51 53 56 57 58 59 61 62 63 64 65 66 68 69 70 75 77 78 80 82 84 85 86 87 88 89 94 95 96 97 99 100 101 102 103 104 105 106 107 110 111 113 114 116 118 121 122 123 124 126 127 128 130 131 132 133 134 138 139 140 143 144 145 146 147 152 154 155 156 157 158 160 163 164 166 167 168 172 173 176 179 180 181 182 183 186 187 188 189 190 193 194 196 197 199
Vertex 143: 116 4 5 6 7 11 12 14 16 17 19 21 22 23 25 27 28 30 33 34 39 40 42 43 45 47 49 50 52 55 56 57 58 60 61 62 67 68 69 73 74 76 79 80 81 83 88 89 90 91 93 95 96 99 100 101 102 103 105 108 109 112 113 114 116 118 119 122 123 125 126 130 131 132 133 135 136 138 139 140 141 142 146 147 148 150 154 158 160 161 162 163 165 166 167 168 169 170 171 173 174 178 179 180 182 183 185 189 190 191 192 193 195 196 198 199 200
Vertex 144: 135 1 2 5 7 8 11 12 13 14 15 19 21 22 23 25 26 27 28 29 31 32 33 34 35 37 38 39 40 41 43 46 47 49 50 51 52 53 54 56 57 60 61 63 64 67 69 71 73 76 77 78 79 80 81 82 83 84 85 87 88 90 91 92 93 96 97 98 99 101 102 103 104 106 107 108 109 110 111 112 114 116 117 120 121 124 125 126 128 129 130 131 132 136 137 138 139 141 142 145 146 147 152 154 155 156 157 158 159 160 161 162 164 165 166 167 169 170 172 174 175 177 182 183 184 185 186 187 188 190 191 192 193 194 195 196
Vertex 145: 137 1 2 3 4 5 6 7 9 10 11 12 13 15 19 20 21 22 23 24 25 26 27 28 30 31 33 35 36 38 39 40 41 42 47 48 49 51 52 53 54 56 57 58 62 65 67 68 69 70 71 72 73 74 75 76 77 78 79 82 83 85 86 88 93 97 99 100 101 102 103 104 107 110 113 115 116 117 118 119 120 121 122 123 124 125 127 128 130 131 132 133 134 136 137 138 139 140 141 142 144 146 147 148 149 150 152 153 154 155 158 160 161 162 166 167 168 169 171 172 174 175 176 177 179 181 182 184 186 187 188 190 192 193 194 195 198 199
Vertex 146: 103 1 2 4 11 13 14 16 19 20 22 24 25 26 28 29 31 32 33 34 35 36 38 40 41 44 45 49 51 54 55 56 61 65 70 74 76 79 81 82 84 86 87 89 91 92 94 99 100 101 106 107 108 109 113 117 118 121 123 126 130 131 132 133 134 135 137 142 143 144 145 147 149 152 153 154 155 158 160 161 164 165 166 168 170 171 173 174 175 178 181 183 184 185 187 188 189 190 191 192 195 196 198 199
Vertex 147: 110 5 8 14 18 19 20 21 22 23 25 26 31 33 35 36 39 42 45 48 52 59 60 61 62 64 65 69 70 71 72 74 75 76 79 80 81 83 86 88 90 91 92 94 97 99 102 103 104 105 107 108 109 110 111 112 114 117 118 119 121 122 123 124 126 127 128 129 132 134 135 138 140 141 142 143 144 145 146 148 151 152 153 154 155 158 159 160 163 168 169 171 173 174 177 178 181 182 183 184 185 186 187 189 191 193 194 196 197 199 200
Vertex 148: 118 1 5 7 8 9 13 14 16 17 18 20 21 22 25 26 27 28 29 30 31 33 34 35 41 42 43 45 46 49 50 51 52 55 57 58 59 60 61 63 64 65 66 67 68 72 73 76 77 78 79 81 82 84 85 87 88 91 92 94 96 100 102 105 106 107 108 109 110 111 112 116 119 120 121 124 126 127 128 129 130 131 133 136 138 139 140 143 145 147 149 150 151 152 153 154 158 160 161 166 167 168 169 171 174 175 176 178 179 182 185 186 188 190 191 193 194 196 199
Vertex 149: 104 1 2 4 9 10 11 12 14 16 18 19 21 24 25 29 30 31 34 35 37 38 41 42 43 44 45 46 47 50 53 55 58 59 61 62 63 64 67 70 75 76 77 80 82 84 85 86 87 89 90 93 95 97 98 100 102 103 107 109 110 113 114 115 116 117 119 120 122 124 125 130 135 136 138 139 145 146 148 151 153 157 158 161 163 165 166 168 169 170 171 174 177 178 181 182 184 186 187 191 193 194 196 197 200
Vertex 150: 115 1 2 3 6 7 8 9 11 15 18 19 20 22 24 26 27 28 29 30 34 35 36 39 40 41 42 44 45 46 47 49 51 54 55 56 57 60 61 63 64 66 67 68 69 71 73 75 78 80 82 83 85 86 88 89 92 94 95 96 97 98 99 102 104 105 107 108 109 112 118 122 123 125 127 132 133 135 136 137 138 139 140 141 143 145 148 151 152 154 155 157 159 163 165 166 167 168 169 174 175 177 179 180 182 183 186 187 189 191 193 194 197 198 199 200
Vertex 151: 120 1 2 3 4 5 7 8 9 10 11 13 14 15 16 21 22 24 25 26 27 28 34 36 37 38 39 40 42 44 45 50 51 53 56 57 59 60 61 63 65 66 67 68 72 76 78 82 85 88 89 92 94 97 99 100 101 103 104 105 106 107 108 111 114 116 117 120 121 122 123 124 125 126 127 128 129 132 133 134 141 147 148 149 150 152 153 156 158 159 160 161 162 163 164 165 167 169 170 171 172 173 175 176 177 178 179 181 182 187 188 189 190 191 192 193 194 195 196 198 199
Vertex 152: 123 1 2 3 4 5 6 7 8 10 12 16 17 18 20 21 24 26 27 29 31 32 35 36 37 38 42 44 45 46 50 51 53 54 55 56 57 58 59 60 61 62 63 64 65 66 67 68 69 71 72 74 75 77 78 81 83 85 86 87 88 89 94 99 101 102 103 104 106 108 111 115 116 117 119 121 122 123 130 131 132 134 138 140 141 142 144 145 146 147 148 150 151 155 156 157 161 163 165 167 168 169 170 171 172 173 174 178 180 181 182 183 184 185 186 187 188 190 192 194 195 196 197 200
Vertex 153: 123 1 4 6 8 9 10 11 13 14 15 16 17 23 25 26 28 31 33 37 39 41 42 44 45 46 47 48 50 51 52 53 54 57 58 59 61 62 65 66 67 68 70 71 73 74 76 77 79 80 81 82 84 87 91 92 94 97 100 101 102 104 105 107 108 109 110 111 112 115 117 118 122 123 124 125 126 127 129 130 133 134 135 136 137 138 139 145 146 147 148 149 151 155 157 158 159 160 162 164 165 166 167 169 170 172 173 175 176 177 179 181 182 183 184 186 187 188 190 192 195 197 198 199
Vertex 154: 126 1 3 4 5 6 10 11 13 18 19 21 22 24 25 27 28 30 31 32 34 35 38 39 41 42 46 47 48 52 53 54 56 60 62 63 64 65 66 68 70 71 72 73 74 75 77 78 79 80 81 82 83 84 85 86 87 88 89 90 91 92 93 94 95 96 97 98 102 103 104 106 107 108 114 116 119 120 121 123 124 126 128 129 130 132 135 136 137 139 142 143 144 145 146 147 148 150 157 158 159 160 161 162 163 164 165 166 167 170 171 172 173 174 175 180 182 183 184 185 188 190 191 194 196 197 200
Vertex 155: 119 2 3 4 5 6 7 10 11 13 14 15 17 20 22 23 24 26 28 30 31 39 41 43 44 45 46 52 55 56 57 58 59 61 63 64 65 70 71 72 74 75 76 77 78 79 81 82 83 84 86 87 88 89 90 91 92 96 98 101 102 104 105 106 108 109 111 112 113 114 115 118 121 123 125 126 127 131 135 137 138 142 144 145 146 147 150 152 153 156 159 160 162 163 164 165 166 167 168 170 171 172 174 176 179 181 184 185 186 187 188 189 190 191 192 194 195 196 197 200
Vertex 156: 103 1 3 5 6 7 8 9 14 15 16 18 19 21 22 25 26 27 28 32 33 34 36 37 38 39 41 42 43 44 45 47 49 50 51 52 53 54 58 59 61 62 63 64 65 69 70 73 75 82 85 89 90 91 94 95 97 98 100 103 111 113 115 116 119 121 122 123 124 125 127 128 131 133 135 136 142 144 151 152 155 160 162 164 165 167 171 175 176 177 178 179 180 182 183 184 186 192 193 195 196 197 199 200
Vertex 157: 122 2 3 4 5 6 7 10 16 18 19 22 24 25 27 28 29 30 31 32 36 37 39 40 41 42 43 44 46 47 49 53 57 58 59 60 61 63 64 65 66 67 69 70 71 72 73 74 77 78 79 80 81 84 85 90 95 96 97 98 99 101 102 103 104 105 106 108 109 110 112 113 118 120 126 127 128 130 131 132 133 134 135 136 137 138 139 140 141 142 144 149 150 152 153 154 158 161 162 163 165 166 169 170 172 176 178 179 180 181 182 183 184 185 186 188 191 192 193 195 196 197 200
Vertex 158: 128 1 2 5 6 8 10 12 13 15 16 17 20 22 23 24 25 26 27 28 29 30 31 32 33 37 39 41 43 45 46 47 49 51 52 55 56 57 62 63 64 65 66 70 71 72 76 78 80 83 84 85 88 90 92 93 94 95 96 100 102 103 104 105 106 107 108 109 110 111 113 114 115 116 117 118 121 122 124 125 126 127 129 130 131 134 135 136 137 140 141 142 143 144 145 146 147 148 149 151 153 154 157 159 161 162 164 165 166 168 172 173 174 175 176 177 178 179 180 182 184 186 187 189 190 191 192 195 197
Vertex 159: 116 1 3 4 6 8 13 14 22 23 24 26 27 28 29 30 34 36 42 44 45 47 48 49 50 51 53 57 60 61 63 64 66 67 69 70 71 73 75 76 77 79 81 82 83 84 86 87 88 89 90 92 93 94 95 96 97 98 99 101 102 103 104 105 106 108 111 113 114 115 118 119 121 122 123 124 125 126 127 129 131 134 135 136 139 141 144 147 150 151 153 154 155 158 161 162 163 165 167 169 171 172 174 175 176 177 179 180 183 185 186 191 192 193 194 197 200
Vertex 160: 110 1 2 5 7 8 12 13 17 18 20 22 24 25 27 28 30 32 34 35 37 39 40 41 42 45 46 47 48 50 51 52 56 57 59 61 62 67 69 70 71 73 76 77 78 80 81 84 85 87 88 89 90 93 95 97 98 100 102 103 104 105 106 107 111 112 114 119 120 121 125 127 128 129 130 133 134 135 137 140 141 142 143 144 145 146 147 148 151 153 154 155 156 161 162 166 167 170 171 173 174 176 177 178 183 186 189 191 192 193 197
Vertex 161: 106 2 5 6 7 9 11 12 13 16 17 22 27 30 31 32 33 36 37 38 40 42 44 46 47 49 50 51 52 54 55 61 62 63 64 66 68 70 71 72 75 76 77 79 80 82 84 85 87 89 91 92 93 96 97 99 104 107 109 111 114 116 117 118 119 120 121 122 124 125 126 130 131 132 134 139 140 143 144 145 146 148 149 151 152 154 157 158 159 160 162 163 172 173 174 176 179 185 188 189 190 194 195 196 197 198 199
Vertex 162: 128 1 2 4 6 7 8 10 12 15 16 17 19 20 21 24 26 27 28 29 33 34 37 39 40 41 42 43 44 45 47 48 50 52 53 57 59 63 64 65 66 67 68 69 72 73 74 76 77 79 81 82 83 84 85 86 87 88 90 91 93 95 96 98 99 100 101 103 105 106 107 109 110 111 112 114 115 117 118 120 123 125 127 128 129 130 132 136 137 138 143 144 145 151 153 154 155 156 157 158 159 160 161 163 164 165 166 168 170 171 173 174 177 178 179 180 182 183 185 188 189 191 192 193 194 195 196 197 200
Vertex 163: 124 7 8 9 10 15 16 17 18 21 22 23 24 25 26 28 30 31 32 35 36 37 39 40 41 43 44 48 49 50 51 52 53 54 55 57 59 61 62 64 66 67 70 72 73 74 75 76 78 79 81 82 84 85 86 88 89 90 91 94 98 99 101 106 107 108 109 112 114 115 116 117 119 122 123 124 125 128 130 132 133 135 136 137 138 139 140 141 142 143 147 149 150 151 152 154 155 157 159 161 162 164 167 168 169 172 173 174 175 178 179 181 182 183 185 186 190 191 193 194 195 196 197 199 200
Vertex 164: 119 1 4 5 6 9 10 11 12 15 16 18 19 22 24 25 26 27 28 29 30 32 35 36 39 40 41 44 46 47 48 49 51 54 56 57 58 60 61 63 64 66 67 70 74 75 76 79 80 81 82 83 85 86 88 90 91 92 97 100 102 103 107 109 110 112 113 115 116 120 121 122 125 126 128 129 130 132 133 134 138 139 140 141 142 144 146 151 153 154 155 156 158 162 163 165 166 169 170 171 172 173 174 175 176 177 178 179 181 182 183 185 186 188 190 191 192 195 197 200
Vertex 165: 113 1 2 3 5 7 12 15 16 17 18 19 20 21 22 23 26 30 31 33 34 35 36 37 39 40 41 43 44 45 46 47 48 50 52 54 55 56 57 58 61 62 63 64 65 66 67 72 75 79 81 82 84 92 93 94 95 96 97 99 100 103 104 105 106 108 109 115 116 117 118 119 122 123 126 127 130 131 132 134 135 139 141 143 144 146 149 150 151 152 153 154 155 156 157 158 159 162 164 166 167 168 169 171 172 173 178 188 189 190 192 193 197 198
Vertex 166: 124 1 3 4 5 7 8 9 10 11 12 14 18 20 21 22 23 24 25 28 31 34 35 39 40 42 44 48 50 52 53 54 55 56 57 59 60 61 64 66 67 70 72 74 75 78 79 80 81 82 83 84 85 86 87 89 90 92 93 94 95 98 100 101 102 103 104 105 108 109 110 117 119 121 122 124 126 128 131 132 134 135 136 138 140 141 142 143 144 145 146 148 149 150 153 154 155 157 158 160 162 164 165 167 169 170 171 172 175 176 178 179 181 182 184 185 187 188 189 190 191 193 196 197 199
Vertex 167: 123 1 2 4 5 7 9 11 12 14 15 17 18 21 22 25 26 27 28 32 33 34 39 40 41 42 44 45 46 48 50 51 54 55 56 57 60 63 64 65 66 68 69 70 72 77 79 81 83 84 85 86 87 89 91 92 93 94 95 96 97 99 100 101 102 103 112 114 115 118 119 120 121 123 124 130 131 132 134 136 138 139 140 141 142 143 144 145 148 150 151 152 153 154 155 156 159 160 163 165 166 169 174 177 178 179 180 181 182 183 184 185 186 187 188 189 190 192 193 194 195 197 198 199
Vertex 168: 124 4 5 6 7 8 9 12 13 14 15 16 18 19 20 21 23 25 26 27 30 31 32 33 34 36 38 39 41 42 43 46 47 48 51 52 53 56 58 61 62 63 64 65 66 69 70 72 73 76 78 79 80 83 86 88 90 91 92 93 94 95 97 99 100 101 102 103 105 106 107 110 112 115 117 120 121 123 126 129 130 131 136 137 138 140 142 143 145 146 147 148 149 150 152 155 158 162 163 165 169 170 171 172 173 174 175 176 177 178 179 180 181 183 186 187 188 190 191 193 194 195 196 198 200
Vertex 169: 120 2 3 4 5 7 9 10 12 13 16 18 19 21 22 23 26 27 28 29 30 31 32 34 38 39 41 43 44 45 50 51 52 54 56 57 58 61 62 64 65 66 67 69 71 72 73 76 78 79 80 81 82 83 85 88 90 92 93 94 95 97 98 99 100 101 103 104 105 108 109 112 113 114 116 117 118 120 123 125 126 128 129 131 132 134 136 139 140 143 144 145 147 148 149 150 151 152 153 157 159 163 164 165 166 167 168 171 172 179 180 182 183 184 185 189 190 192 197 198 199
Vertex 170: 128 1 2 4 5 7 8 9 10 11 12 13 15 16 17 18 19 20 22 24 26 27 28 29 30 31 32 34 36 37 38 39 41 46 47 48 50 51 53 57 58 59 61 62 63 64 65 67 71 72 73 74 75 76 78 81 82 83 84 85 86 87 90 94 96 97 99 101 104 106 109 110 111 112 113 114 115 116 118 119 120 121 122 123 124 127 128 130 131 132 133 135 137 139 140 141 143 144 146 149 151 152 153 154 155 157 160 162 164 166 168 171 172 174 175 176 177 179 182 186 187 188 190 192 193 195 196 197 199
Vertex 171: 121 1 2 3 5 7 10 11 15 16 17 19 21 22 23 24 25 26 27 28 30 31 32 33 35 38 39 42 43 44 50 51 54 55 57 62 64 65 66 68 69 71 73 75 77 81 82 84 85 88 89 90 91 92 93 94 95 97 99 103 104 105 106 113 115 118 119 120 121 122 123 125 126 127 134 136 138 139 140 141 143 145 146 147 148 149 151 152 154 155 156 159 160 162 164 165 166 168 169 170 173 174 175 176 178 179 180 181 182 183 184 185 186 187 188 191 192 193 194 195 198 200
Vertex 172: 116 1 3 4 8 9 12 13 14 15 16 17 21 22 23 24 25 26 28 29 30 31 32 35 36 38 44 45 46 47 48 50 51 52 53 54 55 58 60 62 63 65 67 68 70 76 78 81 82 83 84 87 89 91 92 93 94 95 98 99 100 101 103 104 108 111 114 116 117 121 124 125 127 128 131 133 134 135 137 139 141 142 144 145 151 152 153 154 155 157 158 159 161 163 164 165 166 168 169 170 173 174 175 176 177 178 180 186 189 191 192 195 196 197 198 199 200
Vertex 173: 119 3 6 7 8 9 12 15 16 17 19 20 22 23 24 25 28 30 32 34 35 39 40 41 42 43 44 46 48 49 50 51 52 53 54 55 57 59 60 61 62 63 65 70 73 75 76 77 79 80 82 83 84 85 87 88 90 91 92 93 94 98 99 101 102 104 105 107 108 110 113 114 115 118 119 120 121 127 128 131 133 135 137 138 139 141 142 143 146 147 151 152 153 154 158 160 161 162 163 164 165 168 171 172 174 176 178 179 180 184 185 186 187 188 191 193 194 196 197 200
Vertex 174: 130 1 2 3 6 8 10 12 14 16 17 18 23 24 28 31 32 33 34 35 36 37 38 39 40 42 43 46 48 49 50 51 52 53 54 56 57 58 60 62 65 68 69 70 73 79 80 81 82 83 84 85 86 87 89 91 92 93 94 95 96 97 101 103 104 105 106 109 110 113 114 115 116 117 118 121 122 124 125 126 127 128 130 131 133 134 135 136 138 143 144 145 146 147 148 149 150 152 154 155 158 159 160 161 162 163 164 167 168 170 171 172 173 175 176 177 178 180 182 183 188 189 191 192 193 194 195 196 197 198 199
Vertex 175: 131 1 2 4 5 6 11 13 14 16 17 19 22 23 24 26 27 31 32 33 34 36 37 41 42 43 44 46 47 48 49 50 51 52 53 55 56 57 58 60 62 63 64 66 67 68 70 71 72 73 74 75 76 77 78 79 81 82 83 85 87 90 91 93 95 96 97 98 100 101 102 103 104 106 107 108 109 110 112 113 116 119 122 123 124 125 126 128 133 134 135 136 137 138 144 145 146 148 150 151 153 154 156 158 159 163 164 166 168 170 171 172 174 176 178 179 180 181 182 183 184 185 186 187 188 189 190 193 194 196 197 198
Vertex 176: 115 1 4 8 10 13 14 17 18 19 21 22 23 24 26 27 28 32 36 38 40 42 43 44 45 48 49 51 52 53 56 57 58 62 63 65 70 71 72 76 78 79 81 83 84 85 86 87 89 90 91 92 94 95 96 97 98 99 102 104 106 108 109 111 112 114 118 119 120 121 123 125 126 127 128 131 132 134 136 139 140 142 145 148 151 153 155 156 157 158 159 160 161 164 166 168 170 171 172 173 174 175 177 179 182 183 185 187 188 190 191 192 193 196 198 199
Vertex 177: 110 1 2 3 4 5 11 12 17 19 20 21 22 25 31 33 34 36 37 38 39 40 41 43 44 46 47 48 49 52 53 54 55 56 60 67 68 70 72 75 77 78 79 85 88 91 92 94 96 97 99 100 101 102 103 104 105 107 108 109 110 112 114 115 116 117 119 122 124 125 126 127 128 133 134 135 136 137 138 144 145 147 149 150 151 153 156 158 159 160 162 164 167 168 170 172 174 176 179 182 183 184 185 189 191 193 194 195 198 199 200
Vertex 178: 115 1 2 3 4 5 8 9 13 15 16 18 20 21 22 23 24 27 28 30 32 33 36 38 41 42 43 44 45 46 47 50 52 53 54 56 58 59 64 65 67 68 71 73 74 78 79 82 83 84 88 89 91 93 94 95 96 97 104 105 106 108 111 112 114 115 116 120 122 123 124 125 127 128 130 131 134 136 139 140 143 146 147 148 149 151 152 156 157 158 160 162 163 164 165 166 167 168 171 172 173 174 175 180 182 183 184 187 188 192 194 195 197 198 199 200
Vertex 179: 131 1 2 6 8 10 13 14 15 16 17 18 19 20 23 25 27 28 29 32 33 34 36 37 40 41 42 43 44 45 46 52 55 57 58 59 60 61 62 65 66 68 69 70 71 72 74 75 76 77 78 79 81 84 86 88 89 90 91 93 94 95 96 98 99 100 101 103 108 109 111 113 114 117 119 120 121 122 123 124 125 126 127 128 130 136 137 138 139 140 142 143 145 148 150 151 153 155 156 157 158 159 161 162 163 164 166 167 168 169 170 171 173 175 176 177 180 181 182 183 184 185 186 187 188 189 191 193 194 198 199 200
Vertex 180: 118 2 3 4 6 9 10 11 12 14 18 19 20 21 22 23 24 26 27 29 30 31 34 35 36 38 39 41 42 46 49 50 51 53 54 55 56 61 62 63 65 66 67 68 70 71 76 77 80 81 84 85 86 88 89 91 92 93 94 95 97 102 103 104 105 106 107 108 109 110 112 113 117 121 122 123 124 125 126 127 129 132 133 134 137 139 141 142 143 150 152 154 156 157 158 159 162 167 168 169 171 172 173 174 175 178 179 181 185 186 188 190 192 194 195 196 197 198 199
Vertex 181: 115 1 2 3 4 5 6 7 8 9 10 12 14 19 22 26 31 34 36 37 39 40 45 47 48 51 53 54 55 57 58 60 61 62 63 66 67 69 71 72 73 74 76 77 78 80 82 83 84 85 87 88 89 91 92 93 94 95 96 97 98 99 100 102 103 104 105 106 107 108 109 112 117 119 123 124 125 126 128 129 130 131 133 139 140 141 142 145 146 147 149 151 152 153 155 157 163 164 166 167 168 171 175 179 180 183 184 186 188 192 194 195 196 197 198 199
Vertex 182: 124 1 2 3 5 7 8 9 10 11 12 13 14 18 24 25 28 30 33 36 37 38 39 40 41 42 43 45 46 47 49 50 51 54 55 57 60 62 63 64 66 68 69 71 72 74 75 76 79 80 82 87 88 89 90 91 92 93 94 95 98 99 101 102 103 106 107 108 112 114 117 118 121 123 124 125 126 128 130 131 132 133 134 136 138 140 142 143 144 145 147 148 149 150 151 152 153 154 156 157 158 162 163 164 166 167 169 170 171 174 175 176 177 178 179 183 185 186 187 189 191 192 197 199 200
Vertex 183: 119 2 3 4 5 10 11 12 13 16 17 18 19 21 22 26 28 32 33 34 37 39 40 41 42 43 44 47 48 53 54 55 56 57 58 60 62 65 67 68 69 70 71 73 78 81 82 83 84 85 88 91 93 94 95 96 97 98 102 103 105 107 108 109 111 112 114 115 119 120 121 122 123 124 125 126 127 129 135 138 139 142 143 144 146 147 150 152 153 154 156 157 159 160 162 163 164 167 168 169 171 174 175 176 177 178 179 181 182 185 186 189 190 191 192 193 195 196 197 198
Vertex 184: 126 2 3 6 8 9 13 14 18 22 23 25 26 28 29 30 32 33 34 35 37 38 39 40 41 43 44 45 47 48 52 53 54 55 56 57 59 60 61 63 64 65 66 67 68 69 71 72 74 75 76 79 80 81 82 83 86 87 88 89 90 91 93 95 96 97 98 102 105 106 107 108 109 110 111 113 116 117 118 119 122 124 128 129 130 132 133 134 135 136 137 139 140 141 144 145 146 147 149 152 153 154 155 156 157 158 166 167 169 171 173 175 177 178 179 181 187 188 189 190 191 192 193 194 196 197 198
Vertex 185: 121 2 5 7 11 13 15 16 17 18 19 20 21 24 26 27 28 29 35 36 37 39 42 45 46 48 49 50 55 58 61 62 64 65 66 67 68 72 73 74 75 77 79 80 81 82 83 88 90 93 96 97 99 100 101 102 104 105 106 107 109 110 111 112 115 116 117 118 120 121 122 127 128 129 130 131 132 133 136 137 138 139 140 141 143 144 146 147 148 152 154 155 157 159 161 162 163 164 166 167 169 171 173 175 176 177 179 180 182 183 186 187 188 189 190 191 193 195 196 198 199 200
Vertex 186: 131 3 4 5 7 8 9 11 12 14 15 16 18 23 24 28 29 31 32 35 36 37 39 40 45 48 49 51 52 53 54 55 57 58 59 60 61 63 65 66 69 74 77 78 79 80 81 82 83 86 88 89 90 91 92 93 94 96 97 98 99 100 101 102 103 104 105 106 107 108 109 110 111 112 113 116 117 118 119 121 122 123 124 125 126 128 130 131 132 134 137 138 139 140 142 144 145 147 148 149 150 152 153 155 156 157 158 159 160 163 164 167 168 170 171 172 173 175 179 180 181 182 183 185 187 188 192 193 195 196 197 199
Vertex 187: 113 1 2 3 5 6 7 12 14 15 19 22 23 24 25 26 27 29 30 31 33 34 35 36 39 41 44 47 48 49 50 52 53 55 57 58 61 68 70 71 75 76 77 80 82 83 85 86 87 88 89 90 95 96 97 99 100 101 102 103 106 107 108 109 111 112 116 118 121 122 123 125 131 133 135 136 139 140 142 144 145 146 147 149 150 151 152 153 155 158 166 167 168 170 171 173 175 176 178 179 182 184 185 186 188 189 190 191 192 195 196 197 199 200
Vertex 188: 127 2 3 4 5 6 7 8 9 10 11 12 13 14 15 17 18 21 22 24 27 30 31 33 40 43 44 47 48 49 50 51 52 53 55 57 58 59 60 61 64 66 68 70 71 72 74 75 76 77 80 81 82 83 85 86 88 89 90 91 92 96 98 100 104 105 106 109 110 114 116 117 118 121 122 123 124 125 127 128 129 130 132 133 134 135 136 138 142 144 145 146 148 151 152 153 154 155 157 161 162 164 165 166 167 168 170 171 173 174 175 176 178 179 180 181 184 185 186 187 191 192 193 194 195 198 199 200
Vertex 189: 125 1 2 3 4 5 6 8 9 10 11 12 15 17 18 20 21 22 23 24 25 26 29 30 31 33 34 35 38 39 40 43 44 45 47 48 49 52 53 61 62 63 64 66 67 68 69 71 73 76 78 79 80 81 82 83 84 85 87 89 90 93 94 96 97 98 99 100 104 105 106 109 112 113 115 117 118 120 122 123 124 125 127 128 130 131 132 134 135 136 137 138 140 141 142 143 146 147 150 151 155 158 160 161 162 165 166 167 169 172 174 175 177 179 182 183 184 185 187 190 191 192 193 194 196 200
Vertex 190: 128 1 2 3 5 7 8 9 10 11 12 14 15 16 17 18 19 20 23 24 25 26 27 28 30 32 33 34 35 37 41 42 43 44 45 47 48 50 51 52 53 55 56 61 64 65 66 67 68 69 71 74 75 76 77 80 81 82 83 84 85 87 88 89 90 91 97 99 101 103 105 107 109 112 113 115 118 119 120 121 124 125 126 127 128 130 131 132 133 135 136 137 138 139 140 141 142 143 144 145 146 148 151 152 153 154 155 158 161 163 164 165 166 167 168 169 170 175 176 180 183 184 185 187 189 191 192 193 195
Vertex 191: 121 4 5 6 7 9 11 14 15 16 17 18 19 20 23 24 26 28 29 30 34 35 36 39 41 42 44 45 46 50 51 52 53 56 60 64 65 66 67 68 70 71 74 76 78 81 82 83 84 85 86 87 88 89 90 91 93 94 96 97 98 103 109 110 111 112 116 117 119 120 121 122 123 124 128 130 131 133 134 135 136 139 140 143 144 146 147 148 149 150 151 154 155 157 158 159 160 162 163 164 166 168 171 172 173 174 176 177 179 182 183 184 185 187 188 189 190 192 196 197 199 200
Vertex 192: 122 1 2 6 7 8 9 10 12 13 14 15 17 18 19 20 21 22 23 24 25 26 28 31 32 34 35 39 40 41 44 48 49 50 51 53 54 56 57 60 63 64 65 66 67 68 69 70 71 72 78 80 82 85 87 88 90 94 95 96 97 98 99 102 103 104 105 106 108 112 113 115 116 121 122 124 126 128 129 130 131 136 138 140 143 144 145 146 151 152 153 155 156 157 158 159 160 162 164 165 167 169 170 171 172 174 176 178 180 181 182 183 184 186 187 188 189 190 191 194 195 198 199
Vertex 193: 133 1 2 3 4 5 6 8 9 10 11 12 14 16 17 18 21 22 24 25 27 29 32 34 35 37 40 41 43 46 47 48 50 51 52 53 55 57 58 60 61 63 64 66 67 68 69 71 72 73 74 75 76 77 79 80 82 83 86 87 88 89 92 93 94 95 96 99 100 102 103 105 106 109 112 114 115 116 117 118 119 121 122 123 125 127 130 131 132 134 135 137 138 139 140 141 142 143 144 145 147 148 149 150 151 156 157 159 160 162 163 165 166 167 168 170 171 173 174 175 176 177 179 183 184 185 186 188 189 190 194 195 196 199
Vertex 194: 119 4 5 6 7 8 10 11 13 15 17 19 21 23 25 26 29 31 33 34 35 36 38 39 40 41 42 43 45 46 47 50 51 52 53 54 55 56 59 60 61 62 64 66 67 69 70 71 75 77 78 80 81 83 84 85 91 92 93 94 97 99 100 103 104 105 106 108 109 111 112 113 117 118 119 121 122 124 125 126 127 130 132 133 134 136 142 144 145 147 148 149 150 151 152 154 155 159 161 162 163 167 168 171 173 174 175 177 178 179 180 181 184 188 189 192 193 196 198 200
Vertex 195: 138 1 2 6 9 10 11 14 16 18 19 20 21 22 23 26 27 28 29 30 31 32 33 34 38 39 40 41 42 43 46 47 48 51 52 53 54 55 56 57 58 59 60 61 64 65 66 68 69 70 72 73 74 75 76 77 78 80 81 82 83 84 85 86 87 88 89 91 94 95 96 97 98 99 100 101 102 104 106 109 111 113 114 115 116 117 119 120 121 122 123 124 126 128 129 130 131 132 133 135 136 137 140 141 143 144 145 146 151 152 153 155 156 157 158 161 162 163 164 167 168 170 171 172 174 177 178 180 181 183 185 186 187 188 190 192 193 196 199
Vertex 196: 129 1 2 3 4 5 6 10 12 14 15 16 17 18 19 20 22 24 25 27 29 32 33 37 39 41 42 43 45 46 49 50 51 52 53 54 55 56 61 62 65 66 69 70 72 73 74 75 76 77 78 82 83 85 86 87 88 90 91 94 96 97 98 99 101 102 103 104 105 106 107 109 110 113 114 115 118 119 120 122 124 128 129 131 132 134 135 138 139 140 141 142 143 144 146 147 148 149 151 152 154 155 156 157 161 162 163 166 168 170 172 173 174 175 176 180 181 183 184 185 186 187 189 191 193 194 195 197 198 199
Vertex 197: 111 2 7 8 9 10 12 18 22 23 25 26 29 30 31 32 33 38 39 41 42 44 45 49 50 52 54 55 56 59 60 61 63 64 70 71 74 76 78 80 81 83 84 85 87 89 93 98 100 101 103 106 107 108 110 112 114 115 117 119 123 125 126 127 128 130 134 135 136 137 138 139 140 142 147 149 150 152 153 154 155 156 157 158 159 160 161 162 163 164 165 166 167 169 170 172 173 174 175 178 180 181 182 183 184 186 187 191 196 198 199 200
Vertex 198: 102 2 3 5 8 11 12 13 14 16 17 18 20 21 24 25 26 27 30 31 32 33 36 38 42 47 48 49 52 56 57 58 61 64 65 66 67 68 71 72 74 75 77 79 81 82 83 88 90 91 92 93 94 95 99 100 105 109 114 115 116 118 119 121 122 123 124 125 126 128 132 133 134 138 143 145 146 150 151 153 161 165 167 168 169 171 172 174 175 176 177 178 179 180 181 183 184 185 188 192 194 196 197
Vertex 199: 129 1 2 4 5 7 8 10 12 18 19 20 23 24 25 26 27 28 29 30 31 32 33 34 35 38 41 42 44 46 48 49 50 51 52 53 57 58 59 60 61 62 63 66 67 68 69 72 75 76 77 80 82 84 87 88 90 92 93 94 95 96 99 100 101 102 103 106 107 109 110 111 112 113 114 115 116 117 118 120 121 123 125 126 127 128 129 130 132 133 134 136 137 139 142 143 145 146 147 148 150 151 153 156 161 163 166 167 169 170 172 174 176 177 178 179 180 181 182 185 186 187 188 191 192 193 195 196 197 200
Vertex 200: 119 4 5 6 7 8 9 11 12 13 14 17 18 19 21 22 23 25 26 27 29 32 33 34 35 37 39 40 43 44 47 49 50 53 55 56 57 58 59 60 61 64 65 66 67 70 72 73 74 76 77 78 80 86 87 88 92 95 96 97 98 99 101 102 103 104 105 106 109 110 111 113 114 115 118 119 121 123 124 125 127 128 129 130 134 136 137 138 139 140 141 143 147 149 150 152 154 155 156 157 159 162 163 164 168 171 172 173 177 178 179 182 185 187 188 189 191 194 197 199